<?xml version="1.0" encoding="UTF-8"?>
<!-- track-length = 10053 filtered ascend = 664 plain-ascend = 8 cost=10053 energy=.1kwh time=3h 23m 6s -->
<gpx 
 xmlns="http://www.topografix.com/GPX/1/1" 
 xmlns:xsi="http://www.w3.org/2001/XMLSchema-instance" 
 xsi:schemaLocation="http://www.topografix.com/GPX/1/1 http://www.topografix.com/GPX/1/1/gpx.xsd" 
 creator="BRouter-1.6.1" version="1.1">
 <trk>
  <name>Durfort - 10.1km</name>
  <trkseg>
   <trkpt lon="2.065853" lat="43.438408"><ele>287.25</ele></trkpt>
   <trkpt lon="2.065862" lat="43.438403"><ele>287.25</ele></trkpt>
   <trkpt lon="2.065935" lat="43.438358"><ele>287.25</ele></trkpt>
   <trkpt lon="2.066210" lat="43.438255"><ele>290.75</ele></trkpt>
   <trkpt lon="2.066700" lat="43.438131"><ele>295.0</ele></trkpt>
   <trkpt lon="2.066743" lat="43.438188"><ele>292.25</ele></trkpt>
   <trkpt lon="2.066781" lat="43.438260"><ele>289.0</ele></trkpt>
   <trkpt lon="2.066818" lat="43.438359"><ele>285.5</ele></trkpt>
   <trkpt lon="2.066873" lat="43.438277"><ele>288.25</ele></trkpt>
   <trkpt lon="2.067054" lat="43.438241"><ele>290.75</ele></trkpt>
   <trkpt lon="2.067394" lat="43.438235"><ele>292.25</ele></trkpt>
   <trkpt lon="2.067731" lat="43.438207"><ele>294.5</ele></trkpt>
   <trkpt lon="2.068674" lat="43.438133"><ele>298.5</ele></trkpt>
   <trkpt lon="2.068941" lat="43.438122"><ele>298.25</ele></trkpt>
   <trkpt lon="2.069390" lat="43.438178"><ele>297.25</ele></trkpt>
   <trkpt lon="2.069595" lat="43.438158"><ele>298.5</ele></trkpt>
   <trkpt lon="2.069897" lat="43.438023"><ele>300.0</ele></trkpt>
   <trkpt lon="2.070321" lat="43.437817"><ele>300.5</ele></trkpt>
   <trkpt lon="2.070445" lat="43.437890"><ele>301.25</ele></trkpt>
   <trkpt lon="2.070559" lat="43.437986"><ele>302.5</ele></trkpt>
   <trkpt lon="2.070707" lat="43.438056"><ele>303.75</ele></trkpt>
   <trkpt lon="2.070887" lat="43.438103"><ele>306.25</ele></trkpt>
   <trkpt lon="2.070953" lat="43.438161"><ele>308.25</ele></trkpt>
   <trkpt lon="2.071142" lat="43.438562"><ele>322.75</ele></trkpt>
   <trkpt lon="2.071256" lat="43.438730"><ele>330.25</ele></trkpt>
   <trkpt lon="2.071240" lat="43.438764"><ele>331.25</ele></trkpt>
   <trkpt lon="2.071240" lat="43.438865"><ele>334.5</ele></trkpt>
   <trkpt lon="2.071315" lat="43.438951"><ele>338.25</ele></trkpt>
   <trkpt lon="2.071401" lat="43.439208"><ele>347.5</ele></trkpt>
   <trkpt lon="2.071465" lat="43.439270"><ele>350.25</ele></trkpt>
   <trkpt lon="2.071519" lat="43.439504"><ele>358.5</ele></trkpt>
   <trkpt lon="2.071350" lat="43.439581"><ele>360.5</ele></trkpt>
   <trkpt lon="2.071217" lat="43.439659"><ele>363.25</ele></trkpt>
   <trkpt lon="2.071255" lat="43.439741"><ele>366.5</ele></trkpt>
   <trkpt lon="2.071217" lat="43.439792"><ele>368.5</ele></trkpt>
   <trkpt lon="2.070977" lat="43.439741"><ele>366.75</ele></trkpt>
   <trkpt lon="2.070908" lat="43.439764"><ele>367.75</ele></trkpt>
   <trkpt lon="2.070793" lat="43.439816"><ele>370.25</ele></trkpt>
   <trkpt lon="2.070724" lat="43.439772"><ele>368.25</ele></trkpt>
   <trkpt lon="2.070613" lat="43.439745"><ele>367.0</ele></trkpt>
   <trkpt lon="2.070460" lat="43.439834"><ele>371.75</ele></trkpt>
   <trkpt lon="2.070506" lat="43.439896"><ele>375.0</ele></trkpt>
   <trkpt lon="2.070407" lat="43.439955"><ele>378.5</ele></trkpt>
   <trkpt lon="2.070470" lat="43.440048"><ele>383.5</ele></trkpt>
   <trkpt lon="2.070378" lat="43.440091"><ele>386.75</ele></trkpt>
   <trkpt lon="2.070407" lat="43.440125"><ele>388.75</ele></trkpt>
   <trkpt lon="2.070219" lat="43.440243"><ele>397.5</ele></trkpt>
   <trkpt lon="2.070028" lat="43.440248"><ele>399.25</ele></trkpt>
   <trkpt lon="2.070028" lat="43.440313"><ele>403.75</ele></trkpt>
   <trkpt lon="2.070095" lat="43.440397"><ele>408.75</ele></trkpt>
   <trkpt lon="2.070212" lat="43.440441"><ele>410.5</ele></trkpt>
   <trkpt lon="2.070212" lat="43.440462"><ele>412.0</ele></trkpt>
   <trkpt lon="2.070137" lat="43.440485"><ele>414.0</ele></trkpt>
   <trkpt lon="2.070187" lat="43.440526"><ele>416.25</ele></trkpt>
   <trkpt lon="2.070173" lat="43.440549"><ele>418.0</ele></trkpt>
   <trkpt lon="2.070194" lat="43.440598"><ele>421.0</ele></trkpt>
   <trkpt lon="2.070240" lat="43.440613"><ele>421.5</ele></trkpt>
   <trkpt lon="2.070276" lat="43.440655"><ele>423.75</ele></trkpt>
   <trkpt lon="2.070269" lat="43.440696"><ele>426.5</ele></trkpt>
   <trkpt lon="2.070286" lat="43.440716"><ele>427.5</ele></trkpt>
   <trkpt lon="2.070283" lat="43.440778"><ele>431.5</ele></trkpt>
   <trkpt lon="2.070233" lat="43.440806"><ele>434.0</ele></trkpt>
   <trkpt lon="2.070235" lat="43.440899"><ele>439.25</ele></trkpt>
   <trkpt lon="2.070157" lat="43.440934"><ele>442.0</ele></trkpt>
   <trkpt lon="2.070114" lat="43.440960"><ele>443.5</ele></trkpt>
   <trkpt lon="2.070100" lat="43.440969"><ele>444.25</ele></trkpt>
   <trkpt lon="2.069919" lat="43.440990"><ele>446.0</ele></trkpt>
   <trkpt lon="2.069837" lat="43.440991"><ele>445.5</ele></trkpt>
   <trkpt lon="2.069793" lat="43.441047"><ele>447.75</ele></trkpt>
   <trkpt lon="2.069794" lat="43.441107"><ele>450.75</ele></trkpt>
   <trkpt lon="2.069854" lat="43.441151"><ele>453.25</ele></trkpt>
   <trkpt lon="2.069773" lat="43.441215"><ele>456.0</ele></trkpt>
   <trkpt lon="2.069758" lat="43.441259"><ele>458.0</ele></trkpt>
   <trkpt lon="2.069851" lat="43.441323"><ele>461.75</ele></trkpt>
   <trkpt lon="2.069815" lat="43.441336"><ele>462.25</ele></trkpt>
   <trkpt lon="2.069826" lat="43.441354"><ele>463.0</ele></trkpt>
   <trkpt lon="2.069999" lat="43.441444"><ele>469.0</ele></trkpt>
   <trkpt lon="2.070067" lat="43.441619"><ele>477.25</ele></trkpt>
   <trkpt lon="2.070178" lat="43.441834"><ele>480.75</ele></trkpt>
   <trkpt lon="2.070104" lat="43.441837"><ele>481.0</ele></trkpt>
   <trkpt lon="2.069973" lat="43.441888"><ele>481.25</ele></trkpt>
   <trkpt lon="2.069602" lat="43.442303"><ele>480.25</ele></trkpt>
   <trkpt lon="2.069504" lat="43.442414"><ele>480.0</ele></trkpt>
   <trkpt lon="2.069606" lat="43.442358"><ele>480.75</ele></trkpt>
   <trkpt lon="2.069732" lat="43.442354"><ele>482.0</ele></trkpt>
   <trkpt lon="2.069880" lat="43.442370"><ele>483.75</ele></trkpt>
   <trkpt lon="2.070266" lat="43.442456"><ele>487.5</ele></trkpt>
   <trkpt lon="2.070424" lat="43.442470"><ele>489.0</ele></trkpt>
   <trkpt lon="2.070580" lat="43.442516"><ele>490.5</ele></trkpt>
   <trkpt lon="2.070880" lat="43.442581"><ele>491.75</ele></trkpt>
   <trkpt lon="2.071095" lat="43.442602"><ele>493.25</ele></trkpt>
   <trkpt lon="2.071438" lat="43.442645"><ele>495.75</ele></trkpt>
   <trkpt lon="2.071931" lat="43.442688"><ele>500.0</ele></trkpt>
   <trkpt lon="2.072146" lat="43.442667"><ele>503.25</ele></trkpt>
   <trkpt lon="2.072575" lat="43.442516"><ele>513.0</ele></trkpt>
   <trkpt lon="2.072918" lat="43.442495"><ele>516.75</ele></trkpt>
   <trkpt lon="2.073112" lat="43.442495"><ele>518.75</ele></trkpt>
   <trkpt lon="2.073262" lat="43.442473"><ele>519.75</ele></trkpt>
   <trkpt lon="2.073476" lat="43.442473"><ele>523.0</ele></trkpt>
   <trkpt lon="2.073605" lat="43.442495"><ele>525.75</ele></trkpt>
   <trkpt lon="2.073798" lat="43.442495"><ele>529.25</ele></trkpt>
   <trkpt lon="2.074077" lat="43.442538"><ele>532.5</ele></trkpt>
   <trkpt lon="2.074463" lat="43.442688"><ele>529.75</ele></trkpt>
   <trkpt lon="2.074592" lat="43.442706"><ele>530.0</ele></trkpt>
   <trkpt lon="2.074614" lat="43.442709"><ele>530.25</ele></trkpt>
   <trkpt lon="2.074742" lat="43.442688"><ele>532.75</ele></trkpt>
   <trkpt lon="2.074764" lat="43.442645"><ele>535.25</ele></trkpt>
   <trkpt lon="2.074935" lat="43.442602"><ele>539.5</ele></trkpt>
   <trkpt lon="2.075043" lat="43.442602"><ele>540.25</ele></trkpt>
   <trkpt lon="2.075064" lat="43.442624"><ele>539.0</ele></trkpt>
   <trkpt lon="2.075107" lat="43.442624"><ele>539.0</ele></trkpt>
   <trkpt lon="2.075129" lat="43.442602"><ele>540.25</ele></trkpt>
   <trkpt lon="2.075408" lat="43.442602"><ele>540.5</ele></trkpt>
   <trkpt lon="2.075581" lat="43.442616"><ele>539.75</ele></trkpt>
   <trkpt lon="2.075772" lat="43.442581"><ele>542.0</ele></trkpt>
   <trkpt lon="2.075858" lat="43.442559"><ele>543.0</ele></trkpt>
   <trkpt lon="2.075944" lat="43.442559"><ele>541.75</ele></trkpt>
   <trkpt lon="2.076236" lat="43.442477"><ele>541.25</ele></trkpt>
   <trkpt lon="2.076545" lat="43.442345"><ele>539.25</ele></trkpt>
   <trkpt lon="2.076793" lat="43.442075"><ele>539.75</ele></trkpt>
   <trkpt lon="2.076975" lat="43.441955"><ele>537.75</ele></trkpt>
   <trkpt lon="2.077146" lat="43.441808"><ele>537.25</ele></trkpt>
   <trkpt lon="2.077167" lat="43.441808"><ele>536.75</ele></trkpt>
   <trkpt lon="2.077256" lat="43.441705"><ele>537.25</ele></trkpt>
   <trkpt lon="2.077296" lat="43.441658"><ele>537.25</ele></trkpt>
   <trkpt lon="2.077286" lat="43.441636"><ele>537.25</ele></trkpt>
   <trkpt lon="2.077225" lat="43.441568"><ele>537.75</ele></trkpt>
   <trkpt lon="2.077206" lat="43.441487"><ele>537.0</ele></trkpt>
   <trkpt lon="2.077201" lat="43.441425"><ele>536.5</ele></trkpt>
   <trkpt lon="2.077242" lat="43.441173"><ele>533.0</ele></trkpt>
   <trkpt lon="2.077250" lat="43.441068"><ele>531.75</ele></trkpt>
   <trkpt lon="2.077281" lat="43.440959"><ele>530.5</ele></trkpt>
   <trkpt lon="2.077489" lat="43.440671"><ele>528.75</ele></trkpt>
   <trkpt lon="2.077521" lat="43.440597"><ele>528.5</ele></trkpt>
   <trkpt lon="2.077602" lat="43.440336"><ele>528.5</ele></trkpt>
   <trkpt lon="2.077655" lat="43.440219"><ele>528.75</ele></trkpt>
   <trkpt lon="2.077783" lat="43.440045"><ele>529.75</ele></trkpt>
   <trkpt lon="2.077847" lat="43.440002"><ele>530.5</ele></trkpt>
   <trkpt lon="2.077980" lat="43.439974"><ele>531.0</ele></trkpt>
   <trkpt lon="2.078060" lat="43.439938"><ele>531.25</ele></trkpt>
   <trkpt lon="2.078209" lat="43.439785"><ele>532.25</ele></trkpt>
   <trkpt lon="2.078235" lat="43.439727"><ele>532.75</ele></trkpt>
   <trkpt lon="2.078241" lat="43.439667"><ele>532.75</ele></trkpt>
   <trkpt lon="2.078229" lat="43.439621"><ele>532.75</ele></trkpt>
   <trkpt lon="2.078157" lat="43.439499"><ele>531.5</ele></trkpt>
   <trkpt lon="2.078162" lat="43.439447"><ele>531.5</ele></trkpt>
   <trkpt lon="2.078195" lat="43.439404"><ele>532.0</ele></trkpt>
   <trkpt lon="2.078262" lat="43.439365"><ele>533.5</ele></trkpt>
   <trkpt lon="2.078329" lat="43.439314"><ele>535.25</ele></trkpt>
   <trkpt lon="2.078454" lat="43.439145"><ele>535.25</ele></trkpt>
   <trkpt lon="2.078475" lat="43.439077"><ele>535.0</ele></trkpt>
   <trkpt lon="2.078480" lat="43.438999"><ele>534.5</ele></trkpt>
   <trkpt lon="2.078411" lat="43.438743"><ele>533.5</ele></trkpt>
   <trkpt lon="2.078420" lat="43.438675"><ele>533.25</ele></trkpt>
   <trkpt lon="2.078462" lat="43.438618"><ele>533.25</ele></trkpt>
   <trkpt lon="2.078563" lat="43.438564"><ele>533.75</ele></trkpt>
   <trkpt lon="2.078889" lat="43.438469"><ele>536.25</ele></trkpt>
   <trkpt lon="2.079202" lat="43.438405"><ele>538.25</ele></trkpt>
   <trkpt lon="2.079085" lat="43.438160"><ele>540.0</ele></trkpt>
   <trkpt lon="2.078774" lat="43.437782"><ele>536.25</ele></trkpt>
   <trkpt lon="2.078555" lat="43.437537"><ele>531.25</ele></trkpt>
   <trkpt lon="2.078367" lat="43.437276"><ele>526.25</ele></trkpt>
   <trkpt lon="2.078292" lat="43.437156"><ele>523.5</ele></trkpt>
   <trkpt lon="2.078244" lat="43.437117"><ele>521.5</ele></trkpt>
   <trkpt lon="2.078169" lat="43.437101"><ele>518.5</ele></trkpt>
   <trkpt lon="2.078104" lat="43.437144"><ele>516.25</ele></trkpt>
   <trkpt lon="2.078078" lat="43.437241"><ele>515.5</ele></trkpt>
   <trkpt lon="2.078048" lat="43.437414"><ele>515.0</ele></trkpt>
   <trkpt lon="2.077867" lat="43.437642"><ele>509.5</ele></trkpt>
   <trkpt lon="2.077539" lat="43.437883"><ele>498.5</ele></trkpt>
   <trkpt lon="2.077491" lat="43.437864"><ele>496.75</ele></trkpt>
   <trkpt lon="2.077515" lat="43.437740"><ele>496.75</ele></trkpt>
   <trkpt lon="2.077601" lat="43.437427"><ele>498.25</ele></trkpt>
   <trkpt lon="2.077740" lat="43.437039"><ele>501.5</ele></trkpt>
   <trkpt lon="2.077767" lat="43.436658"><ele>500.75</ele></trkpt>
   <trkpt lon="2.077745" lat="43.436451"><ele>501.25</ele></trkpt>
   <trkpt lon="2.077660" lat="43.436222"><ele>499.5</ele></trkpt>
   <trkpt lon="2.077499" lat="43.435961"><ele>495.0</ele></trkpt>
   <trkpt lon="2.077263" lat="43.435665"><ele>488.25</ele></trkpt>
   <trkpt lon="2.077033" lat="43.435478"><ele>482.0</ele></trkpt>
   <trkpt lon="2.076748" lat="43.435381"><ele>473.0</ele></trkpt>
   <trkpt lon="2.076663" lat="43.435428"><ele>469.0</ele></trkpt>
   <trkpt lon="2.076706" lat="43.435494"><ele>469.5</ele></trkpt>
   <trkpt lon="2.076888" lat="43.435673"><ele>473.5</ele></trkpt>
   <trkpt lon="2.077086" lat="43.435926"><ele>478.0</ele></trkpt>
   <trkpt lon="2.077231" lat="43.436268"><ele>481.0</ele></trkpt>
   <trkpt lon="2.077274" lat="43.436568"><ele>480.5</ele></trkpt>
   <trkpt lon="2.077258" lat="43.436872"><ele>480.25</ele></trkpt>
   <trkpt lon="2.077167" lat="43.437199"><ele>479.0</ele></trkpt>
   <trkpt lon="2.076979" lat="43.437553"><ele>474.0</ele></trkpt>
   <trkpt lon="2.076936" lat="43.437705"><ele>473.75</ele></trkpt>
   <trkpt lon="2.076856" lat="43.437771"><ele>471.25</ele></trkpt>
   <trkpt lon="2.076706" lat="43.437849"><ele>466.25</ele></trkpt>
   <trkpt lon="2.076513" lat="43.437887"><ele>459.25</ele></trkpt>
   <trkpt lon="2.076320" lat="43.437868"><ele>451.75</ele></trkpt>
   <trkpt lon="2.076218" lat="43.437868"><ele>447.75</ele></trkpt>
   <trkpt lon="2.076127" lat="43.437891"><ele>444.75</ele></trkpt>
   <trkpt lon="2.076100" lat="43.437841"><ele>443.0</ele></trkpt>
   <trkpt lon="2.076309" lat="43.437708"><ele>449.5</ele></trkpt>
   <trkpt lon="2.076336" lat="43.437510"><ele>448.25</ele></trkpt>
   <trkpt lon="2.076443" lat="43.437405"><ele>451.25</ele></trkpt>
   <trkpt lon="2.076470" lat="43.437273"><ele>450.5</ele></trkpt>
   <trkpt lon="2.076566" lat="43.437167"><ele>453.25</ele></trkpt>
   <trkpt lon="2.076652" lat="43.437101"><ele>456.0</ele></trkpt>
   <trkpt lon="2.076695" lat="43.436985"><ele>456.5</ele></trkpt>
   <trkpt lon="2.076738" lat="43.436525"><ele>456.75</ele></trkpt>
   <trkpt lon="2.076582" lat="43.436016"><ele>456.5</ele></trkpt>
   <trkpt lon="2.076245" lat="43.435884"><ele>445.5</ele></trkpt>
   <trkpt lon="2.076137" lat="43.435843"><ele>442.0</ele></trkpt>
   <trkpt lon="2.075741" lat="43.435719"><ele>429.25</ele></trkpt>
   <trkpt lon="2.075472" lat="43.435364"><ele>425.0</ele></trkpt>
   <trkpt lon="2.075227" lat="43.435089"><ele>420.5</ele></trkpt>
   <trkpt lon="2.074842" lat="43.434966"><ele>407.5</ele></trkpt>
   <trkpt lon="2.074643" lat="43.434916"><ele>400.75</ele></trkpt>
   <trkpt lon="2.074502" lat="43.434919"><ele>396.25</ele></trkpt>
   <trkpt lon="2.074405" lat="43.434860"><ele>392.5</ele></trkpt>
   <trkpt lon="2.074197" lat="43.434700"><ele>384.25</ele></trkpt>
   <trkpt lon="2.074117" lat="43.434664"><ele>381.25</ele></trkpt>
   <trkpt lon="2.074088" lat="43.434675"><ele>380.25</ele></trkpt>
   <trkpt lon="2.074062" lat="43.434909"><ele>381.25</ele></trkpt>
   <trkpt lon="2.074021" lat="43.434975"><ele>380.25</ele></trkpt>
   <trkpt lon="2.073944" lat="43.435008"><ele>377.5</ele></trkpt>
   <trkpt lon="2.073882" lat="43.434990"><ele>375.25</ele></trkpt>
   <trkpt lon="2.073718" lat="43.434826"><ele>367.5</ele></trkpt>
   <trkpt lon="2.073614" lat="43.434772"><ele>363.25</ele></trkpt>
   <trkpt lon="2.073557" lat="43.434775"><ele>361.0</ele></trkpt>
   <trkpt lon="2.073487" lat="43.434823"><ele>359.0</ele></trkpt>
   <trkpt lon="2.073434" lat="43.434919"><ele>357.75</ele></trkpt>
   <trkpt lon="2.073394" lat="43.435033"><ele>356.5</ele></trkpt>
   <trkpt lon="2.073430" lat="43.435156"><ele>355.0</ele></trkpt>
   <trkpt lon="2.073415" lat="43.435191"><ele>353.75</ele></trkpt>
   <trkpt lon="2.073366" lat="43.435204"><ele>351.75</ele></trkpt>
   <trkpt lon="2.073234" lat="43.435135"><ele>349.0</ele></trkpt>
   <trkpt lon="2.073188" lat="43.435150"><ele>347.25</ele></trkpt>
   <trkpt lon="2.073184" lat="43.435191"><ele>346.25</ele></trkpt>
   <trkpt lon="2.073234" lat="43.435269"><ele>346.0</ele></trkpt>
   <trkpt lon="2.073314" lat="43.435342"><ele>347.0</ele></trkpt>
   <trkpt lon="2.073446" lat="43.435398"><ele>350.25</ele></trkpt>
   <trkpt lon="2.073633" lat="43.435446"><ele>356.0</ele></trkpt>
   <trkpt lon="2.074164" lat="43.435547"><ele>372.75</ele></trkpt>
   <trkpt lon="2.074266" lat="43.435584"><ele>375.25</ele></trkpt>
   <trkpt lon="2.074273" lat="43.435610"><ele>374.75</ele></trkpt>
   <trkpt lon="2.074258" lat="43.435622"><ele>374.0</ele></trkpt>
   <trkpt lon="2.074180" lat="43.435624"><ele>371.25</ele></trkpt>
   <trkpt lon="2.073961" lat="43.435610"><ele>364.0</ele></trkpt>
   <trkpt lon="2.073868" lat="43.435614"><ele>360.5</ele></trkpt>
   <trkpt lon="2.073647" lat="43.435652"><ele>351.75</ele></trkpt>
   <trkpt lon="2.073176" lat="43.435795"><ele>333.25</ele></trkpt>
   <trkpt lon="2.073061" lat="43.435814"><ele>329.75</ele></trkpt>
   <trkpt lon="2.072910" lat="43.435815"><ele>325.5</ele></trkpt>
   <trkpt lon="2.072168" lat="43.435731"><ele>310.0</ele></trkpt>
   <trkpt lon="2.072107" lat="43.435924"><ele>307.75</ele></trkpt>
   <trkpt lon="2.071971" lat="43.436232"><ele>305.25</ele></trkpt>
   <trkpt lon="2.071827" lat="43.436462"><ele>302.75</ele></trkpt>
   <trkpt lon="2.071636" lat="43.436661"><ele>300.0</ele></trkpt>
   <trkpt lon="2.070866" lat="43.437462"><ele>298.25</ele></trkpt>
   <trkpt lon="2.070853" lat="43.437476"><ele>298.25</ele></trkpt>
   <trkpt lon="2.070321" lat="43.437817"><ele>300.5</ele></trkpt>
   <trkpt lon="2.069897" lat="43.438023"><ele>300.0</ele></trkpt>
   <trkpt lon="2.069595" lat="43.438158"><ele>298.5</ele></trkpt>
   <trkpt lon="2.069390" lat="43.438178"><ele>297.25</ele></trkpt>
   <trkpt lon="2.068941" lat="43.438122"><ele>298.25</ele></trkpt>
   <trkpt lon="2.068674" lat="43.438133"><ele>298.5</ele></trkpt>
   <trkpt lon="2.067731" lat="43.438207"><ele>294.5</ele></trkpt>
   <trkpt lon="2.067394" lat="43.438235"><ele>292.25</ele></trkpt>
   <trkpt lon="2.067054" lat="43.438241"><ele>290.75</ele></trkpt>
   <trkpt lon="2.066873" lat="43.438277"><ele>288.25</ele></trkpt>
   <trkpt lon="2.066818" lat="43.438359"><ele>285.5</ele></trkpt>
   <trkpt lon="2.066781" lat="43.438260"><ele>289.0</ele></trkpt>
   <trkpt lon="2.066743" lat="43.438188"><ele>292.25</ele></trkpt>
   <trkpt lon="2.066700" lat="43.438131"><ele>295.0</ele></trkpt>
   <trkpt lon="2.066210" lat="43.438255"><ele>290.75</ele></trkpt>
   <trkpt lon="2.065935" lat="43.438358"><ele>287.25</ele></trkpt>
   <trkpt lon="2.065862" lat="43.438403"><ele>287.25</ele></trkpt>
   <trkpt lon="2.065800" lat="43.438332"><ele>288.75</ele></trkpt>
   <trkpt lon="2.065636" lat="43.438210"><ele>298.75</ele></trkpt>
   <trkpt lon="2.065531" lat="43.438157"><ele>304.0</ele></trkpt>
   <trkpt lon="2.065007" lat="43.438273"><ele>308.25</ele></trkpt>
   <trkpt lon="2.065089" lat="43.438071"><ele>318.0</ele></trkpt>
   <trkpt lon="2.065195" lat="43.437881"><ele>326.75</ele></trkpt>
   <trkpt lon="2.065530" lat="43.437644"><ele>332.75</ele></trkpt>
   <trkpt lon="2.065963" lat="43.437305"><ele>342.0</ele></trkpt>
   <trkpt lon="2.066143" lat="43.437192"><ele>345.75</ele></trkpt>
   <trkpt lon="2.066094" lat="43.436712"><ele>369.25</ele></trkpt>
   <trkpt lon="2.066030" lat="43.436600"><ele>375.5</ele></trkpt>
   <trkpt lon="2.065914" lat="43.436397"><ele>387.0</ele></trkpt>
   <trkpt lon="2.065620" lat="43.436118"><ele>406.0</ele></trkpt>
   <trkpt lon="2.065604" lat="43.436064"><ele>409.0</ele></trkpt>
   <trkpt lon="2.065432" lat="43.435969"><ele>416.25</ele></trkpt>
   <trkpt lon="2.065407" lat="43.435821"><ele>423.5</ele></trkpt>
   <trkpt lon="2.065293" lat="43.435821"><ele>425.0</ele></trkpt>
   <trkpt lon="2.065252" lat="43.435720"><ele>430.0</ele></trkpt>
   <trkpt lon="2.064982" lat="43.435572"><ele>438.5</ele></trkpt>
   <trkpt lon="2.065163" lat="43.435101"><ele>458.0</ele></trkpt>
   <trkpt lon="2.064911" lat="43.434998"><ele>461.5</ele></trkpt>
   <trkpt lon="2.064958" lat="43.434681"><ele>474.25</ele></trkpt>
   <trkpt lon="2.064917" lat="43.434604"><ele>477.5</ele></trkpt>
   <trkpt lon="2.064835" lat="43.434503"><ele>482.0</ele></trkpt>
   <trkpt lon="2.064693" lat="43.434373"><ele>487.75</ele></trkpt>
   <trkpt lon="2.064486" lat="43.434317"><ele>491.0</ele></trkpt>
   <trkpt lon="2.064263" lat="43.434088"><ele>500.5</ele></trkpt>
   <trkpt lon="2.064349" lat="43.434078"><ele>500.75</ele></trkpt>
   <trkpt lon="2.064489" lat="43.434077"><ele>500.25</ele></trkpt>
   <trkpt lon="2.064981" lat="43.434158"><ele>495.25</ele></trkpt>
   <trkpt lon="2.065104" lat="43.434173"><ele>495.25</ele></trkpt>
   <trkpt lon="2.065431" lat="43.434192"><ele>496.0</ele></trkpt>
   <trkpt lon="2.065530" lat="43.434218"><ele>495.5</ele></trkpt>
   <trkpt lon="2.065622" lat="43.434262"><ele>494.25</ele></trkpt>
   <trkpt lon="2.065989" lat="43.434533"><ele>484.0</ele></trkpt>
   <trkpt lon="2.066076" lat="43.434578"><ele>481.5</ele></trkpt>
   <trkpt lon="2.066217" lat="43.434591"><ele>479.5</ele></trkpt>
   <trkpt lon="2.066328" lat="43.434574"><ele>478.75</ele></trkpt>
   <trkpt lon="2.066515" lat="43.434512"><ele>478.75</ele></trkpt>
   <trkpt lon="2.066617" lat="43.434417"><ele>480.75</ele></trkpt>
   <trkpt lon="2.067019" lat="43.433791"><ele>482.0</ele></trkpt>
   <trkpt lon="2.067134" lat="43.433364"><ele>485.25</ele></trkpt>
   <trkpt lon="2.067099" lat="43.433082"><ele>490.0</ele></trkpt>
   <trkpt lon="2.067384" lat="43.432533"><ele>483.0</ele></trkpt>
   <trkpt lon="2.067375" lat="43.432404"><ele>485.0</ele></trkpt>
   <trkpt lon="2.067284" lat="43.432123"><ele>492.75</ele></trkpt>
   <trkpt lon="2.067309" lat="43.432013"><ele>493.0</ele></trkpt>
   <trkpt lon="2.067533" lat="43.431841"><ele>485.25</ele></trkpt>
   <trkpt lon="2.067608" lat="43.431747"><ele>483.25</ele></trkpt>
   <trkpt lon="2.067622" lat="43.431565"><ele>487.0</ele></trkpt>
   <trkpt lon="2.067580" lat="43.431405"><ele>493.5</ele></trkpt>
   <trkpt lon="2.067590" lat="43.431344"><ele>494.75</ele></trkpt>
   <trkpt lon="2.067649" lat="43.431293"><ele>494.0</ele></trkpt>
   <trkpt lon="2.067757" lat="43.431245"><ele>491.0</ele></trkpt>
   <trkpt lon="2.068133" lat="43.431155"><ele>478.0</ele></trkpt>
   <trkpt lon="2.068218" lat="43.431122"><ele>475.25</ele></trkpt>
   <trkpt lon="2.068388" lat="43.431008"><ele>471.75</ele></trkpt>
   <trkpt lon="2.068574" lat="43.430897"><ele>468.25</ele></trkpt>
   <trkpt lon="2.068619" lat="43.430853"><ele>467.75</ele></trkpt>
   <trkpt lon="2.068626" lat="43.430786"><ele>468.25</ele></trkpt>
   <trkpt lon="2.068450" lat="43.430239"><ele>478.0</ele></trkpt>
   <trkpt lon="2.068450" lat="43.430176"><ele>478.25</ele></trkpt>
   <trkpt lon="2.068591" lat="43.429688"><ele>479.75</ele></trkpt>
   <trkpt lon="2.068581" lat="43.429303"><ele>487.25</ele></trkpt>
   <trkpt lon="2.068609" lat="43.429256"><ele>487.25</ele></trkpt>
   <trkpt lon="2.068667" lat="43.429225"><ele>486.25</ele></trkpt>
   <trkpt lon="2.068745" lat="43.429216"><ele>484.5</ele></trkpt>
   <trkpt lon="2.069157" lat="43.429271"><ele>472.25</ele></trkpt>
   <trkpt lon="2.069245" lat="43.429267"><ele>470.5</ele></trkpt>
   <trkpt lon="2.069337" lat="43.429235"><ele>469.75</ele></trkpt>
   <trkpt lon="2.069405" lat="43.429181"><ele>470.0</ele></trkpt>
   <trkpt lon="2.069654" lat="43.428908"><ele>476.75</ele></trkpt>
   <trkpt lon="2.069915" lat="43.428690"><ele>480.75</ele></trkpt>
   <trkpt lon="2.069990" lat="43.428663"><ele>480.25</ele></trkpt>
   <trkpt lon="2.070063" lat="43.428661"><ele>480.5</ele></trkpt>
   <trkpt lon="2.070153" lat="43.428678"><ele>480.25</ele></trkpt>
   <trkpt lon="2.070240" lat="43.428718"><ele>479.0</ele></trkpt>
   <trkpt lon="2.070560" lat="43.428914"><ele>473.25</ele></trkpt>
   <trkpt lon="2.071019" lat="43.429194"><ele>465.5</ele></trkpt>
   <trkpt lon="2.071194" lat="43.429209"><ele>468.5</ele></trkpt>
   <trkpt lon="2.071681" lat="43.429344"><ele>472.25</ele></trkpt>
   <trkpt lon="2.071975" lat="43.429390"><ele>472.5</ele></trkpt>
   <trkpt lon="2.072312" lat="43.429373"><ele>475.75</ele></trkpt>
   <trkpt lon="2.072776" lat="43.429273"><ele>480.0</ele></trkpt>
   <trkpt lon="2.072796" lat="43.429231"><ele>482.0</ele></trkpt>
   <trkpt lon="2.072751" lat="43.429178"><ele>484.75</ele></trkpt>
   <trkpt lon="2.072545" lat="43.429074"><ele>492.0</ele></trkpt>
   <trkpt lon="2.072425" lat="43.429048"><ele>493.0</ele></trkpt>
   <trkpt lon="2.072189" lat="43.429027"><ele>491.75</ele></trkpt>
   <trkpt lon="2.072060" lat="43.429023"><ele>490.75</ele></trkpt>
   <trkpt lon="2.072012" lat="43.428994"><ele>491.75</ele></trkpt>
   <trkpt lon="2.072004" lat="43.428955"><ele>493.75</ele></trkpt>
   <trkpt lon="2.072031" lat="43.428914"><ele>496.25</ele></trkpt>
   <trkpt lon="2.072079" lat="43.428865"><ele>499.25</ele></trkpt>
   <trkpt lon="2.072159" lat="43.428820"><ele>502.75</ele></trkpt>
   <trkpt lon="2.072379" lat="43.428752"><ele>509.25</ele></trkpt>
   <trkpt lon="2.072975" lat="43.428622"><ele>517.0</ele></trkpt>
   <trkpt lon="2.073106" lat="43.428581"><ele>519.0</ele></trkpt>
   <trkpt lon="2.073179" lat="43.428542"><ele>521.25</ele></trkpt>
   <trkpt lon="2.073235" lat="43.428480"><ele>525.0</ele></trkpt>
   <trkpt lon="2.073256" lat="43.428421"><ele>528.5</ele></trkpt>
   <trkpt lon="2.073246" lat="43.428357"><ele>532.5</ele></trkpt>
   <trkpt lon="2.073203" lat="43.428318"><ele>534.75</ele></trkpt>
   <trkpt lon="2.073015" lat="43.428248"><ele>538.25</ele></trkpt>
   <trkpt lon="2.072414" lat="43.428049"><ele>546.75</ele></trkpt>
   <trkpt lon="2.072291" lat="43.427991"><ele>547.25</ele></trkpt>
   <trkpt lon="2.072226" lat="43.427946"><ele>548.0</ele></trkpt>
   <trkpt lon="2.072221" lat="43.427911"><ele>549.75</ele></trkpt>
   <trkpt lon="2.072261" lat="43.427884"><ele>551.5</ele></trkpt>
   <trkpt lon="2.072406" lat="43.427846"><ele>556.0</ele></trkpt>
   <trkpt lon="2.072988" lat="43.427665"><ele>566.0</ele></trkpt>
   <trkpt lon="2.073133" lat="43.427628"><ele>567.75</ele></trkpt>
   <trkpt lon="2.073181" lat="43.427597"><ele>569.25</ele></trkpt>
   <trkpt lon="2.073251" lat="43.427498"><ele>574.0</ele></trkpt>
   <trkpt lon="2.073358" lat="43.427424"><ele>575.25</ele></trkpt>
   <trkpt lon="2.073388" lat="43.427394"><ele>575.25</ele></trkpt>
   <trkpt lon="2.073388" lat="43.427363"><ele>576.0</ele></trkpt>
   <trkpt lon="2.073358" lat="43.427334"><ele>577.25</ele></trkpt>
   <trkpt lon="2.073087" lat="43.427266"><ele>580.0</ele></trkpt>
   <trkpt lon="2.072685" lat="43.427108"><ele>585.75</ele></trkpt>
   <trkpt lon="2.072363" lat="43.426945"><ele>590.25</ele></trkpt>
   <trkpt lon="2.072237" lat="43.426851"><ele>592.25</ele></trkpt>
   <trkpt lon="2.072082" lat="43.426675"><ele>597.0</ele></trkpt>
   <trkpt lon="2.072060" lat="43.426649"><ele>597.75</ele></trkpt>
   <trkpt lon="2.071969" lat="43.426483"><ele>601.5</ele></trkpt>
   <trkpt lon="2.071915" lat="43.426050"><ele>613.5</ele></trkpt>
   <trkpt lon="2.071906" lat="43.425902"><ele>617.75</ele></trkpt>
   <trkpt lon="2.072017" lat="43.425451"><ele>619.75</ele></trkpt>
   <trkpt lon="2.071579" lat="43.424966"><ele>631.25</ele></trkpt>
   <trkpt lon="2.071243" lat="43.425204"><ele>628.0</ele></trkpt>
   <trkpt lon="2.070482" lat="43.425746"><ele>621.25</ele></trkpt>
   <trkpt lon="2.070057" lat="43.425614"><ele>624.5</ele></trkpt>
   <trkpt lon="2.069673" lat="43.425815"><ele>621.0</ele></trkpt>
   <trkpt lon="2.069233" lat="43.426101"><ele>613.0</ele></trkpt>
   <trkpt lon="2.068676" lat="43.426641"><ele>600.25</ele></trkpt>
   <trkpt lon="2.068611" lat="43.426705"><ele>598.75</ele></trkpt>
   <trkpt lon="2.067892" lat="43.427087"><ele>592.25</ele></trkpt>
   <trkpt lon="2.067114" lat="43.427391"><ele>590.25</ele></trkpt>
   <trkpt lon="2.066422" lat="43.427695"><ele>590.75</ele></trkpt>
   <trkpt lon="2.066229" lat="43.428197"><ele>579.25</ele></trkpt>
   <trkpt lon="2.066240" lat="43.428910"><ele>570.0</ele></trkpt>
   <trkpt lon="2.066079" lat="43.429522"><ele>572.25</ele></trkpt>
   <trkpt lon="2.065746" lat="43.429911"><ele>579.0</ele></trkpt>
   <trkpt lon="2.065457" lat="43.430103"><ele>578.25</ele></trkpt>
   <trkpt lon="2.065727" lat="43.430430"><ele>577.0</ele></trkpt>
   <trkpt lon="2.065743" lat="43.430613"><ele>576.25</ele></trkpt>
   <trkpt lon="2.065741" lat="43.430633"><ele>576.0</ele></trkpt>
   <trkpt lon="2.065694" lat="43.431336"><ele>567.25</ele></trkpt>
   <trkpt lon="2.065508" lat="43.431884"><ele>559.5</ele></trkpt>
   <trkpt lon="2.065329" lat="43.432216"><ele>553.75</ele></trkpt>
   <trkpt lon="2.064920" lat="43.432584"><ele>549.0</ele></trkpt>
   <trkpt lon="2.064251" lat="43.433070"><ele>539.25</ele></trkpt>
   <trkpt lon="2.065232" lat="43.433126"><ele>530.0</ele></trkpt>
   <trkpt lon="2.065778" lat="43.433216"><ele>524.75</ele></trkpt>
   <trkpt lon="2.065882" lat="43.433244"><ele>522.25</ele></trkpt>
   <trkpt lon="2.066011" lat="43.433279"><ele>519.5</ele></trkpt>
   <trkpt lon="2.066178" lat="43.433473"><ele>511.5</ele></trkpt>
   <trkpt lon="2.066101" lat="43.433748"><ele>506.0</ele></trkpt>
   <trkpt lon="2.065987" lat="43.433865"><ele>504.75</ele></trkpt>
   <trkpt lon="2.065808" lat="43.433982"><ele>504.0</ele></trkpt>
   <trkpt lon="2.065117" lat="43.434095"><ele>498.0</ele></trkpt>
   <trkpt lon="2.064981" lat="43.434158"><ele>495.25</ele></trkpt>
   <trkpt lon="2.064489" lat="43.434077"><ele>500.25</ele></trkpt>
   <trkpt lon="2.064349" lat="43.434078"><ele>500.75</ele></trkpt>
   <trkpt lon="2.064263" lat="43.434088"><ele>500.5</ele></trkpt>
   <trkpt lon="2.064486" lat="43.434317"><ele>491.0</ele></trkpt>
   <trkpt lon="2.064693" lat="43.434373"><ele>487.75</ele></trkpt>
   <trkpt lon="2.064835" lat="43.434503"><ele>482.0</ele></trkpt>
   <trkpt lon="2.064917" lat="43.434604"><ele>477.5</ele></trkpt>
   <trkpt lon="2.064958" lat="43.434681"><ele>474.25</ele></trkpt>
   <trkpt lon="2.064911" lat="43.434998"><ele>461.5</ele></trkpt>
   <trkpt lon="2.065163" lat="43.435101"><ele>458.0</ele></trkpt>
   <trkpt lon="2.064982" lat="43.435572"><ele>438.5</ele></trkpt>
   <trkpt lon="2.065252" lat="43.435720"><ele>430.0</ele></trkpt>
   <trkpt lon="2.065293" lat="43.435821"><ele>425.0</ele></trkpt>
   <trkpt lon="2.065407" lat="43.435821"><ele>423.5</ele></trkpt>
   <trkpt lon="2.065432" lat="43.435969"><ele>416.25</ele></trkpt>
   <trkpt lon="2.065604" lat="43.436064"><ele>409.0</ele></trkpt>
   <trkpt lon="2.065620" lat="43.436118"><ele>406.0</ele></trkpt>
   <trkpt lon="2.065914" lat="43.436397"><ele>387.0</ele></trkpt>
   <trkpt lon="2.066094" lat="43.436712"><ele>369.25</ele></trkpt>
   <trkpt lon="2.066143" lat="43.437192"><ele>345.75</ele></trkpt>
   <trkpt lon="2.065963" lat="43.437305"><ele>342.0</ele></trkpt>
   <trkpt lon="2.065530" lat="43.437644"><ele>332.75</ele></trkpt>
   <trkpt lon="2.065195" lat="43.437881"><ele>326.75</ele></trkpt>
   <trkpt lon="2.065089" lat="43.438071"><ele>318.0</ele></trkpt>
   <trkpt lon="2.065007" lat="43.438273"><ele>308.25</ele></trkpt>
   <trkpt lon="2.065531" lat="43.438157"><ele>304.0</ele></trkpt>
   <trkpt lon="2.065636" lat="43.438210"><ele>298.75</ele></trkpt>
   <trkpt lon="2.065800" lat="43.438332"><ele>288.75</ele></trkpt>
   <trkpt lon="2.065862" lat="43.438403"><ele>287.25</ele></trkpt>
   <trkpt lon="2.065724" lat="43.438487"><ele>288.25</ele></trkpt>
   <trkpt lon="2.065511" lat="43.438638"><ele>289.0</ele></trkpt>
   <trkpt lon="2.065439" lat="43.438668"><ele>289.25</ele></trkpt>
  </trkseg>
 </trk>
</gpx>
