<?xml version="1.0" encoding="UTF-8"?>
<!-- track-length = 12943 filtered ascend = 1231 plain-ascend = 463 cost=12944 energy=.3kwh time=5h 43m 39s -->
<gpx 
 xmlns="http://www.topografix.com/GPX/1/1" 
 xmlns:xsi="http://www.w3.org/2001/XMLSchema-instance" 
 xsi:schemaLocation="http://www.topografix.com/GPX/1/1 http://www.topografix.com/GPX/1/1/gpx.xsd" 
 creator="BRouter-1.6.1" version="1.1">
 <trk>
  <name>Modane - Aussois - 12.9km</name>
  <trkseg>
   <trkpt lon="6.657642" lat="45.193267"><ele>1059.0</ele></trkpt>
   <trkpt lon="6.657504" lat="45.193219"><ele>1059.0</ele></trkpt>
   <trkpt lon="6.657482" lat="45.193256"><ele>1058.75</ele></trkpt>
   <trkpt lon="6.657483" lat="45.193297"><ele>1058.75</ele></trkpt>
   <trkpt lon="6.657540" lat="45.193391"><ele>1059.25</ele></trkpt>
   <trkpt lon="6.657542" lat="45.193427"><ele>1059.5</ele></trkpt>
   <trkpt lon="6.657528" lat="45.193464"><ele>1059.75</ele></trkpt>
   <trkpt lon="6.657443" lat="45.193584"><ele>1060.5</ele></trkpt>
   <trkpt lon="6.657272" lat="45.193878"><ele>1063.0</ele></trkpt>
   <trkpt lon="6.657251" lat="45.193921"><ele>1063.5</ele></trkpt>
   <trkpt lon="6.657305" lat="45.193986"><ele>1063.5</ele></trkpt>
   <trkpt lon="6.657316" lat="45.194000"><ele>1063.75</ele></trkpt>
   <trkpt lon="6.657487" lat="45.194205"><ele>1065.0</ele></trkpt>
   <trkpt lon="6.657940" lat="45.194743"><ele>1077.5</ele></trkpt>
   <trkpt lon="6.658007" lat="45.194779"><ele>1078.0</ele></trkpt>
   <trkpt lon="6.658083" lat="45.194798"><ele>1078.0</ele></trkpt>
   <trkpt lon="6.658183" lat="45.194811"><ele>1077.5</ele></trkpt>
   <trkpt lon="6.658305" lat="45.194802"><ele>1076.0</ele></trkpt>
   <trkpt lon="6.658474" lat="45.194757"><ele>1073.75</ele></trkpt>
   <trkpt lon="6.658535" lat="45.194747"><ele>1073.0</ele></trkpt>
   <trkpt lon="6.658588" lat="45.194748"><ele>1072.75</ele></trkpt>
   <trkpt lon="6.658679" lat="45.194778"><ele>1072.75</ele></trkpt>
   <trkpt lon="6.659046" lat="45.194907"><ele>1072.25</ele></trkpt>
   <trkpt lon="6.659514" lat="45.195014"><ele>1068.5</ele></trkpt>
   <trkpt lon="6.659750" lat="45.195073"><ele>1067.5</ele></trkpt>
   <trkpt lon="6.659878" lat="45.195118"><ele>1067.0</ele></trkpt>
   <trkpt lon="6.659981" lat="45.195166"><ele>1066.75</ele></trkpt>
   <trkpt lon="6.660352" lat="45.195449"><ele>1069.75</ele></trkpt>
   <trkpt lon="6.660690" lat="45.195684"><ele>1067.0</ele></trkpt>
   <trkpt lon="6.660910" lat="45.195875"><ele>1066.0</ele></trkpt>
   <trkpt lon="6.661059" lat="45.196020"><ele>1069.25</ele></trkpt>
   <trkpt lon="6.661121" lat="45.196081"><ele>1070.75</ele></trkpt>
   <trkpt lon="6.661309" lat="45.196469"><ele>1077.75</ele></trkpt>
   <trkpt lon="6.661375" lat="45.196528"><ele>1077.0</ele></trkpt>
   <trkpt lon="6.661595" lat="45.196661"><ele>1071.0</ele></trkpt>
   <trkpt lon="6.661985" lat="45.196933"><ele>1074.75</ele></trkpt>
   <trkpt lon="6.662488" lat="45.197329"><ele>1069.5</ele></trkpt>
   <trkpt lon="6.662795" lat="45.197580"><ele>1069.25</ele></trkpt>
   <trkpt lon="6.662912" lat="45.197710"><ele>1070.75</ele></trkpt>
   <trkpt lon="6.663037" lat="45.197849"><ele>1071.0</ele></trkpt>
   <trkpt lon="6.663041" lat="45.197915"><ele>1072.5</ele></trkpt>
   <trkpt lon="6.663067" lat="45.197975"><ele>1073.0</ele></trkpt>
   <trkpt lon="6.663115" lat="45.198025"><ele>1072.5</ele></trkpt>
   <trkpt lon="6.663182" lat="45.198066"><ele>1070.75</ele></trkpt>
   <trkpt lon="6.663671" lat="45.198218"><ele>1063.5</ele></trkpt>
   <trkpt lon="6.663990" lat="45.198330"><ele>1060.25</ele></trkpt>
   <trkpt lon="6.664106" lat="45.198382"><ele>1058.75</ele></trkpt>
   <trkpt lon="6.664201" lat="45.198437"><ele>1058.25</ele></trkpt>
   <trkpt lon="6.664279" lat="45.198512"><ele>1058.25</ele></trkpt>
   <trkpt lon="6.664327" lat="45.198581"><ele>1058.5</ele></trkpt>
   <trkpt lon="6.664471" lat="45.198567"><ele>1058.5</ele></trkpt>
   <trkpt lon="6.664642" lat="45.198578"><ele>1058.25</ele></trkpt>
   <trkpt lon="6.664738" lat="45.198618"><ele>1058.25</ele></trkpt>
   <trkpt lon="6.664913" lat="45.198679"><ele>1058.0</ele></trkpt>
   <trkpt lon="6.665111" lat="45.198777"><ele>1058.0</ele></trkpt>
   <trkpt lon="6.665374" lat="45.198930"><ele>1058.0</ele></trkpt>
   <trkpt lon="6.666273" lat="45.199476"><ele>1059.5</ele></trkpt>
   <trkpt lon="6.666707" lat="45.199786"><ele>1060.0</ele></trkpt>
   <trkpt lon="6.666943" lat="45.199956"><ele>1060.5</ele></trkpt>
   <trkpt lon="6.666988" lat="45.199942"><ele>1060.5</ele></trkpt>
   <trkpt lon="6.667025" lat="45.199943"><ele>1060.5</ele></trkpt>
   <trkpt lon="6.667055" lat="45.199962"><ele>1060.5</ele></trkpt>
   <trkpt lon="6.667986" lat="45.200808"><ele>1062.25</ele></trkpt>
   <trkpt lon="6.668012" lat="45.200856"><ele>1062.25</ele></trkpt>
   <trkpt lon="6.668002" lat="45.200900"><ele>1062.5</ele></trkpt>
   <trkpt lon="6.667897" lat="45.201084"><ele>1063.25</ele></trkpt>
   <trkpt lon="6.667837" lat="45.201169"><ele>1063.75</ele></trkpt>
   <trkpt lon="6.667696" lat="45.201400"><ele>1065.0</ele></trkpt>
   <trkpt lon="6.668080" lat="45.201690"><ele>1065.0</ele></trkpt>
   <trkpt lon="6.668207" lat="45.201772"><ele>1064.75</ele></trkpt>
   <trkpt lon="6.668334" lat="45.201854"><ele>1064.75</ele></trkpt>
   <trkpt lon="6.668759" lat="45.202176"><ele>1065.5</ele></trkpt>
   <trkpt lon="6.669444" lat="45.202716"><ele>1066.5</ele></trkpt>
   <trkpt lon="6.669660" lat="45.202890"><ele>1066.75</ele></trkpt>
   <trkpt lon="6.669818" lat="45.203021"><ele>1067.0</ele></trkpt>
   <trkpt lon="6.669881" lat="45.203073"><ele>1067.0</ele></trkpt>
   <trkpt lon="6.670024" lat="45.203190"><ele>1067.0</ele></trkpt>
   <trkpt lon="6.670109" lat="45.203253"><ele>1067.0</ele></trkpt>
   <trkpt lon="6.670192" lat="45.203298"><ele>1066.75</ele></trkpt>
   <trkpt lon="6.670515" lat="45.203443"><ele>1066.25</ele></trkpt>
   <trkpt lon="6.670712" lat="45.203532"><ele>1066.0</ele></trkpt>
   <trkpt lon="6.670985" lat="45.203692"><ele>1066.25</ele></trkpt>
   <trkpt lon="6.671241" lat="45.203872"><ele>1066.75</ele></trkpt>
   <trkpt lon="6.671476" lat="45.204069"><ele>1066.75</ele></trkpt>
   <trkpt lon="6.672062" lat="45.204526"><ele>1068.5</ele></trkpt>
   <trkpt lon="6.672124" lat="45.204562"><ele>1068.5</ele></trkpt>
   <trkpt lon="6.672205" lat="45.204619"><ele>1068.75</ele></trkpt>
   <trkpt lon="6.672267" lat="45.204661"><ele>1068.75</ele></trkpt>
   <trkpt lon="6.672159" lat="45.204866"><ele>1070.5</ele></trkpt>
   <trkpt lon="6.672075" lat="45.204955"><ele>1071.5</ele></trkpt>
   <trkpt lon="6.671719" lat="45.205170"><ele>1076.75</ele></trkpt>
   <trkpt lon="6.671467" lat="45.205412"><ele>1081.75</ele></trkpt>
   <trkpt lon="6.671006" lat="45.205956"><ele>1091.5</ele></trkpt>
   <trkpt lon="6.670948" lat="45.206072"><ele>1093.75</ele></trkpt>
   <trkpt lon="6.670905" lat="45.206211"><ele>1096.0</ele></trkpt>
   <trkpt lon="6.670903" lat="45.206261"><ele>1096.0</ele></trkpt>
   <trkpt lon="6.670875" lat="45.206287"><ele>1097.25</ele></trkpt>
   <trkpt lon="6.670919" lat="45.206321"><ele>1098.25</ele></trkpt>
   <trkpt lon="6.670946" lat="45.206366"><ele>1099.25</ele></trkpt>
   <trkpt lon="6.670939" lat="45.206402"><ele>1099.75</ele></trkpt>
   <trkpt lon="6.670902" lat="45.206453"><ele>1100.25</ele></trkpt>
   <trkpt lon="6.670915" lat="45.206489"><ele>1101.0</ele></trkpt>
   <trkpt lon="6.670912" lat="45.206557"><ele>1102.25</ele></trkpt>
   <trkpt lon="6.670876" lat="45.206696"><ele>1104.75</ele></trkpt>
   <trkpt lon="6.670872" lat="45.206780"><ele>1108.0</ele></trkpt>
   <trkpt lon="6.670928" lat="45.206965"><ele>1116.75</ele></trkpt>
   <trkpt lon="6.670893" lat="45.207096"><ele>1121.5</ele></trkpt>
   <trkpt lon="6.670897" lat="45.207220"><ele>1126.5</ele></trkpt>
   <trkpt lon="6.670866" lat="45.207281"><ele>1128.25</ele></trkpt>
   <trkpt lon="6.670884" lat="45.207300"><ele>1129.5</ele></trkpt>
   <trkpt lon="6.670913" lat="45.207310"><ele>1130.75</ele></trkpt>
   <trkpt lon="6.670962" lat="45.207296"><ele>1131.75</ele></trkpt>
   <trkpt lon="6.671010" lat="45.207272"><ele>1132.0</ele></trkpt>
   <trkpt lon="6.671046" lat="45.207269"><ele>1133.0</ele></trkpt>
   <trkpt lon="6.671068" lat="45.207283"><ele>1134.25</ele></trkpt>
   <trkpt lon="6.671077" lat="45.207302"><ele>1135.5</ele></trkpt>
   <trkpt lon="6.671078" lat="45.207347"><ele>1137.5</ele></trkpt>
   <trkpt lon="6.671023" lat="45.207471"><ele>1141.25</ele></trkpt>
   <trkpt lon="6.670986" lat="45.207591"><ele>1145.75</ele></trkpt>
   <trkpt lon="6.670948" lat="45.207659"><ele>1147.75</ele></trkpt>
   <trkpt lon="6.670955" lat="45.207688"><ele>1149.5</ele></trkpt>
   <trkpt lon="6.670975" lat="45.207705"><ele>1151.25</ele></trkpt>
   <trkpt lon="6.671020" lat="45.207708"><ele>1153.25</ele></trkpt>
   <trkpt lon="6.671101" lat="45.207699"><ele>1156.25</ele></trkpt>
   <trkpt lon="6.671248" lat="45.207626"><ele>1157.75</ele></trkpt>
   <trkpt lon="6.671391" lat="45.207587"><ele>1160.75</ele></trkpt>
   <trkpt lon="6.671482" lat="45.207552"><ele>1162.0</ele></trkpt>
   <trkpt lon="6.671530" lat="45.207521"><ele>1161.5</ele></trkpt>
   <trkpt lon="6.671568" lat="45.207485"><ele>1160.5</ele></trkpt>
   <trkpt lon="6.671580" lat="45.207449"><ele>1159.0</ele></trkpt>
   <trkpt lon="6.671578" lat="45.207399"><ele>1156.25</ele></trkpt>
   <trkpt lon="6.671598" lat="45.207375"><ele>1155.5</ele></trkpt>
   <trkpt lon="6.671663" lat="45.207326"><ele>1154.75</ele></trkpt>
   <trkpt lon="6.671718" lat="45.207297"><ele>1154.25</ele></trkpt>
   <trkpt lon="6.671761" lat="45.207299"><ele>1155.25</ele></trkpt>
   <trkpt lon="6.671784" lat="45.207320"><ele>1157.25</ele></trkpt>
   <trkpt lon="6.671758" lat="45.207441"><ele>1164.0</ele></trkpt>
   <trkpt lon="6.671783" lat="45.207575"><ele>1174.0</ele></trkpt>
   <trkpt lon="6.671762" lat="45.207707"><ele>1183.0</ele></trkpt>
   <trkpt lon="6.671769" lat="45.207773"><ele>1188.25</ele></trkpt>
   <trkpt lon="6.671782" lat="45.207813"><ele>1191.5</ele></trkpt>
   <trkpt lon="6.671712" lat="45.207875"><ele>1193.75</ele></trkpt>
   <trkpt lon="6.671664" lat="45.207931"><ele>1196.25</ele></trkpt>
   <trkpt lon="6.671651" lat="45.207971"><ele>1198.5</ele></trkpt>
   <trkpt lon="6.671660" lat="45.208000"><ele>1201.0</ele></trkpt>
   <trkpt lon="6.671696" lat="45.208025"><ele>1204.25</ele></trkpt>
   <trkpt lon="6.671778" lat="45.208025"><ele>1207.25</ele></trkpt>
   <trkpt lon="6.672015" lat="45.207967"><ele>1211.0</ele></trkpt>
   <trkpt lon="6.672115" lat="45.207931"><ele>1211.75</ele></trkpt>
   <trkpt lon="6.672208" lat="45.207869"><ele>1210.0</ele></trkpt>
   <trkpt lon="6.672249" lat="45.207773"><ele>1204.0</ele></trkpt>
   <trkpt lon="6.672330" lat="45.207746"><ele>1204.5</ele></trkpt>
   <trkpt lon="6.672375" lat="45.207757"><ele>1206.75</ele></trkpt>
   <trkpt lon="6.672392" lat="45.207804"><ele>1211.0</ele></trkpt>
   <trkpt lon="6.672334" lat="45.207859"><ele>1213.5</ele></trkpt>
   <trkpt lon="6.672320" lat="45.207893"><ele>1215.75</ele></trkpt>
   <trkpt lon="6.672353" lat="45.208043"><ele>1229.0</ele></trkpt>
   <trkpt lon="6.672379" lat="45.208220"><ele>1244.0</ele></trkpt>
   <trkpt lon="6.672369" lat="45.208300"><ele>1250.25</ele></trkpt>
   <trkpt lon="6.672359" lat="45.208344"><ele>1252.75</ele></trkpt>
   <trkpt lon="6.672322" lat="45.208408"><ele>1252.75</ele></trkpt>
   <trkpt lon="6.672250" lat="45.208486"><ele>1251.75</ele></trkpt>
   <trkpt lon="6.672194" lat="45.208582"><ele>1251.75</ele></trkpt>
   <trkpt lon="6.672194" lat="45.208693"><ele>1254.25</ele></trkpt>
   <trkpt lon="6.672270" lat="45.208821"><ele>1260.25</ele></trkpt>
   <trkpt lon="6.672501" lat="45.209081"><ele>1276.75</ele></trkpt>
   <trkpt lon="6.672566" lat="45.209164"><ele>1280.5</ele></trkpt>
   <trkpt lon="6.672656" lat="45.209310"><ele>1285.0</ele></trkpt>
   <trkpt lon="6.672654" lat="45.209427"><ele>1286.75</ele></trkpt>
   <trkpt lon="6.672612" lat="45.209592"><ele>1287.75</ele></trkpt>
   <trkpt lon="6.672624" lat="45.209618"><ele>1288.5</ele></trkpt>
   <trkpt lon="6.672636" lat="45.209627"><ele>1289.0</ele></trkpt>
   <trkpt lon="6.672661" lat="45.209630"><ele>1290.0</ele></trkpt>
   <trkpt lon="6.672744" lat="45.209624"><ele>1292.25</ele></trkpt>
   <trkpt lon="6.672763" lat="45.209634"><ele>1293.0</ele></trkpt>
   <trkpt lon="6.672775" lat="45.209656"><ele>1293.75</ele></trkpt>
   <trkpt lon="6.672803" lat="45.209764"><ele>1296.25</ele></trkpt>
   <trkpt lon="6.672892" lat="45.209868"><ele>1300.75</ele></trkpt>
   <trkpt lon="6.672914" lat="45.209877"><ele>1301.75</ele></trkpt>
   <trkpt lon="6.672927" lat="45.209949"><ele>1303.25</ele></trkpt>
   <trkpt lon="6.672970" lat="45.209975"><ele>1305.25</ele></trkpt>
   <trkpt lon="6.673155" lat="45.209995"><ele>1311.75</ele></trkpt>
   <trkpt lon="6.673218" lat="45.210014"><ele>1314.0</ele></trkpt>
   <trkpt lon="6.673433" lat="45.209971"><ele>1319.0</ele></trkpt>
   <trkpt lon="6.673509" lat="45.209961"><ele>1320.0</ele></trkpt>
   <trkpt lon="6.673580" lat="45.209978"><ele>1321.5</ele></trkpt>
   <trkpt lon="6.673625" lat="45.210008"><ele>1322.75</ele></trkpt>
   <trkpt lon="6.673666" lat="45.210138"><ele>1323.75</ele></trkpt>
   <trkpt lon="6.673703" lat="45.210209"><ele>1324.5</ele></trkpt>
   <trkpt lon="6.673880" lat="45.210338"><ele>1328.25</ele></trkpt>
   <trkpt lon="6.674046" lat="45.210448"><ele>1332.5</ele></trkpt>
   <trkpt lon="6.674496" lat="45.210680"><ele>1344.25</ele></trkpt>
   <trkpt lon="6.674921" lat="45.210918"><ele>1356.5</ele></trkpt>
   <trkpt lon="6.675107" lat="45.211001"><ele>1359.75</ele></trkpt>
   <trkpt lon="6.675299" lat="45.211111"><ele>1362.5</ele></trkpt>
   <trkpt lon="6.675453" lat="45.211275"><ele>1365.5</ele></trkpt>
   <trkpt lon="6.675494" lat="45.211299"><ele>1366.25</ele></trkpt>
   <trkpt lon="6.675642" lat="45.211366"><ele>1368.5</ele></trkpt>
   <trkpt lon="6.676136" lat="45.211560"><ele>1374.75</ele></trkpt>
   <trkpt lon="6.676288" lat="45.211607"><ele>1376.25</ele></trkpt>
   <trkpt lon="6.676610" lat="45.211655"><ele>1379.25</ele></trkpt>
   <trkpt lon="6.676733" lat="45.211693"><ele>1380.5</ele></trkpt>
   <trkpt lon="6.676871" lat="45.211749"><ele>1381.5</ele></trkpt>
   <trkpt lon="6.676976" lat="45.211808"><ele>1382.25</ele></trkpt>
   <trkpt lon="6.677094" lat="45.211892"><ele>1383.5</ele></trkpt>
   <trkpt lon="6.677122" lat="45.211932"><ele>1384.0</ele></trkpt>
   <trkpt lon="6.677129" lat="45.211962"><ele>1384.5</ele></trkpt>
   <trkpt lon="6.677126" lat="45.212070"><ele>1385.75</ele></trkpt>
   <trkpt lon="6.677158" lat="45.212202"><ele>1387.5</ele></trkpt>
   <trkpt lon="6.677163" lat="45.212240"><ele>1388.0</ele></trkpt>
   <trkpt lon="6.677170" lat="45.212292"><ele>1388.75</ele></trkpt>
   <trkpt lon="6.677167" lat="45.212399"><ele>1390.25</ele></trkpt>
   <trkpt lon="6.677180" lat="45.212430"><ele>1390.5</ele></trkpt>
   <trkpt lon="6.677197" lat="45.212450"><ele>1390.75</ele></trkpt>
   <trkpt lon="6.677445" lat="45.212578"><ele>1390.5</ele></trkpt>
   <trkpt lon="6.677495" lat="45.212662"><ele>1390.75</ele></trkpt>
   <trkpt lon="6.677557" lat="45.212746"><ele>1390.5</ele></trkpt>
   <trkpt lon="6.677661" lat="45.212846"><ele>1390.0</ele></trkpt>
   <trkpt lon="6.677693" lat="45.212911"><ele>1390.0</ele></trkpt>
   <trkpt lon="6.677703" lat="45.212991"><ele>1390.25</ele></trkpt>
   <trkpt lon="6.677687" lat="45.213053"><ele>1390.75</ele></trkpt>
   <trkpt lon="6.677640" lat="45.213148"><ele>1392.0</ele></trkpt>
   <trkpt lon="6.677637" lat="45.213230"><ele>1392.5</ele></trkpt>
   <trkpt lon="6.677687" lat="45.213289"><ele>1392.25</ele></trkpt>
   <trkpt lon="6.677787" lat="45.213338"><ele>1391.5</ele></trkpt>
   <trkpt lon="6.677863" lat="45.213372"><ele>1391.0</ele></trkpt>
   <trkpt lon="6.678105" lat="45.213435"><ele>1389.0</ele></trkpt>
   <trkpt lon="6.678577" lat="45.213537"><ele>1385.25</ele></trkpt>
   <trkpt lon="6.678924" lat="45.213744"><ele>1384.5</ele></trkpt>
   <trkpt lon="6.679324" lat="45.213893"><ele>1382.0</ele></trkpt>
   <trkpt lon="6.679730" lat="45.213968"><ele>1377.75</ele></trkpt>
   <trkpt lon="6.680496" lat="45.213957"><ele>1371.25</ele></trkpt>
   <trkpt lon="6.680724" lat="45.213951"><ele>1369.75</ele></trkpt>
   <trkpt lon="6.680876" lat="45.214003"><ele>1370.25</ele></trkpt>
   <trkpt lon="6.681007" lat="45.214072"><ele>1371.25</ele></trkpt>
   <trkpt lon="6.681510" lat="45.214422"><ele>1374.25</ele></trkpt>
   <trkpt lon="6.682115" lat="45.214833"><ele>1375.5</ele></trkpt>
   <trkpt lon="6.682242" lat="45.214880"><ele>1375.75</ele></trkpt>
   <trkpt lon="6.682474" lat="45.214924"><ele>1375.5</ele></trkpt>
   <trkpt lon="6.682379" lat="45.215170"><ele>1381.5</ele></trkpt>
   <trkpt lon="6.682315" lat="45.215367"><ele>1386.75</ele></trkpt>
   <trkpt lon="6.682350" lat="45.215811"><ele>1397.75</ele></trkpt>
   <trkpt lon="6.682472" lat="45.216345"><ele>1413.75</ele></trkpt>
   <trkpt lon="6.682583" lat="45.216525"><ele>1418.25</ele></trkpt>
   <trkpt lon="6.682577" lat="45.216640"><ele>1422.0</ele></trkpt>
   <trkpt lon="6.682513" lat="45.216887"><ele>1432.25</ele></trkpt>
   <trkpt lon="6.682373" lat="45.217113"><ele>1442.5</ele></trkpt>
   <trkpt lon="6.682227" lat="45.217293"><ele>1451.5</ele></trkpt>
   <trkpt lon="6.682022" lat="45.217408"><ele>1459.0</ele></trkpt>
   <trkpt lon="6.681713" lat="45.217442"><ele>1464.75</ele></trkpt>
   <trkpt lon="6.681358" lat="45.217446"><ele>1469.0</ele></trkpt>
   <trkpt lon="6.681676" lat="45.217609"><ele>1474.25</ele></trkpt>
   <trkpt lon="6.681879" lat="45.217745"><ele>1479.5</ele></trkpt>
   <trkpt lon="6.682062" lat="45.217880"><ele>1485.25</ele></trkpt>
   <trkpt lon="6.682499" lat="45.217978"><ele>1485.0</ele></trkpt>
   <trkpt lon="6.682833" lat="45.218188"><ele>1493.25</ele></trkpt>
   <trkpt lon="6.682924" lat="45.218245"><ele>1495.5</ele></trkpt>
   <trkpt lon="6.683097" lat="45.218340"><ele>1498.75</ele></trkpt>
   <trkpt lon="6.683253" lat="45.218454"><ele>1504.25</ele></trkpt>
   <trkpt lon="6.683529" lat="45.218621"><ele>1510.5</ele></trkpt>
   <trkpt lon="6.683656" lat="45.218736"><ele>1515.75</ele></trkpt>
   <trkpt lon="6.683755" lat="45.218866"><ele>1522.0</ele></trkpt>
   <trkpt lon="6.683900" lat="45.218981"><ele>1526.25</ele></trkpt>
   <trkpt lon="6.684042" lat="45.219080"><ele>1529.25</ele></trkpt>
   <trkpt lon="6.684279" lat="45.219145"><ele>1529.5</ele></trkpt>
   <trkpt lon="6.684460" lat="45.219222"><ele>1533.25</ele></trkpt>
   <trkpt lon="6.684732" lat="45.219377"><ele>1541.75</ele></trkpt>
   <trkpt lon="6.684888" lat="45.219479"><ele>1547.0</ele></trkpt>
   <trkpt lon="6.685139" lat="45.219556"><ele>1550.0</ele></trkpt>
   <trkpt lon="6.685337" lat="45.219634"><ele>1553.5</ele></trkpt>
   <trkpt lon="6.685780" lat="45.219863"><ele>1562.25</ele></trkpt>
   <trkpt lon="6.686102" lat="45.220008"><ele>1567.5</ele></trkpt>
   <trkpt lon="6.686350" lat="45.220142"><ele>1573.5</ele></trkpt>
   <trkpt lon="6.686530" lat="45.220177"><ele>1573.5</ele></trkpt>
   <trkpt lon="6.686672" lat="45.220252"><ele>1576.0</ele></trkpt>
   <trkpt lon="6.686810" lat="45.220359"><ele>1582.0</ele></trkpt>
   <trkpt lon="6.687290" lat="45.220567"><ele>1593.5</ele></trkpt>
   <trkpt lon="6.687478" lat="45.220713"><ele>1600.5</ele></trkpt>
   <trkpt lon="6.687657" lat="45.220694"><ele>1600.75</ele></trkpt>
   <trkpt lon="6.688203" lat="45.220662"><ele>1603.0</ele></trkpt>
   <trkpt lon="6.688462" lat="45.220680"><ele>1605.75</ele></trkpt>
   <trkpt lon="6.688725" lat="45.220745"><ele>1611.5</ele></trkpt>
   <trkpt lon="6.688895" lat="45.220787"><ele>1615.5</ele></trkpt>
   <trkpt lon="6.689116" lat="45.220866"><ele>1621.75</ele></trkpt>
   <trkpt lon="6.689422" lat="45.220880"><ele>1617.25</ele></trkpt>
   <trkpt lon="6.689895" lat="45.221350"><ele>1633.0</ele></trkpt>
   <trkpt lon="6.690255" lat="45.221602"><ele>1645.0</ele></trkpt>
   <trkpt lon="6.690791" lat="45.221802"><ele>1657.0</ele></trkpt>
   <trkpt lon="6.691114" lat="45.221871"><ele>1661.25</ele></trkpt>
   <trkpt lon="6.691179" lat="45.221920"><ele>1664.5</ele></trkpt>
   <trkpt lon="6.690828" lat="45.221986"><ele>1670.5</ele></trkpt>
   <trkpt lon="6.690980" lat="45.222093"><ele>1678.0</ele></trkpt>
   <trkpt lon="6.691229" lat="45.222106"><ele>1678.0</ele></trkpt>
   <trkpt lon="6.691590" lat="45.222133"><ele>1677.75</ele></trkpt>
   <trkpt lon="6.691765" lat="45.222147"><ele>1677.75</ele></trkpt>
   <trkpt lon="6.691876" lat="45.222193"><ele>1679.0</ele></trkpt>
   <trkpt lon="6.691804" lat="45.222285"><ele>1687.0</ele></trkpt>
   <trkpt lon="6.691020" lat="45.222521"><ele>1709.25</ele></trkpt>
   <trkpt lon="6.690914" lat="45.222564"><ele>1712.5</ele></trkpt>
   <trkpt lon="6.690898" lat="45.222618"><ele>1715.75</ele></trkpt>
   <trkpt lon="6.691098" lat="45.222654"><ele>1717.25</ele></trkpt>
   <trkpt lon="6.691310" lat="45.222666"><ele>1717.5</ele></trkpt>
   <trkpt lon="6.691478" lat="45.222743"><ele>1722.0</ele></trkpt>
   <trkpt lon="6.691897" lat="45.222981"><ele>1735.75</ele></trkpt>
   <trkpt lon="6.692329" lat="45.223172"><ele>1747.0</ele></trkpt>
   <trkpt lon="6.692628" lat="45.223202"><ele>1746.75</ele></trkpt>
   <trkpt lon="6.692706" lat="45.223253"><ele>1749.75</ele></trkpt>
   <trkpt lon="6.692661" lat="45.223286"><ele>1753.0</ele></trkpt>
   <trkpt lon="6.692640" lat="45.223342"><ele>1757.5</ele></trkpt>
   <trkpt lon="6.692680" lat="45.223395"><ele>1760.5</ele></trkpt>
   <trkpt lon="6.692614" lat="45.223423"><ele>1763.25</ele></trkpt>
   <trkpt lon="6.692256" lat="45.223503"><ele>1770.75</ele></trkpt>
   <trkpt lon="6.692079" lat="45.223573"><ele>1775.75</ele></trkpt>
   <trkpt lon="6.692058" lat="45.223629"><ele>1779.5</ele></trkpt>
   <trkpt lon="6.692101" lat="45.223670"><ele>1782.0</ele></trkpt>
   <trkpt lon="6.692466" lat="45.223775"><ele>1788.0</ele></trkpt>
   <trkpt lon="6.693089" lat="45.223982"><ele>1794.75</ele></trkpt>
   <trkpt lon="6.693250" lat="45.224124"><ele>1802.75</ele></trkpt>
   <trkpt lon="6.693219" lat="45.224319"><ele>1814.75</ele></trkpt>
   <trkpt lon="6.693320" lat="45.224294"><ele>1812.25</ele></trkpt>
   <trkpt lon="6.693403" lat="45.224315"><ele>1811.5</ele></trkpt>
   <trkpt lon="6.693616" lat="45.224391"><ele>1811.0</ele></trkpt>
   <trkpt lon="6.693928" lat="45.224545"><ele>1812.5</ele></trkpt>
   <trkpt lon="6.694050" lat="45.224549"><ele>1810.0</ele></trkpt>
   <trkpt lon="6.694155" lat="45.224609"><ele>1811.25</ele></trkpt>
   <trkpt lon="6.694327" lat="45.224657"><ele>1810.0</ele></trkpt>
   <trkpt lon="6.694511" lat="45.224761"><ele>1811.75</ele></trkpt>
   <trkpt lon="6.694597" lat="45.224838"><ele>1814.25</ele></trkpt>
   <trkpt lon="6.694783" lat="45.224871"><ele>1812.0</ele></trkpt>
   <trkpt lon="6.695069" lat="45.224856"><ele>1804.25</ele></trkpt>
   <trkpt lon="6.695314" lat="45.224730"><ele>1790.25</ele></trkpt>
   <trkpt lon="6.695437" lat="45.224713"><ele>1786.0</ele></trkpt>
   <trkpt lon="6.695572" lat="45.224731"><ele>1783.5</ele></trkpt>
   <trkpt lon="6.695805" lat="45.224858"><ele>1784.5</ele></trkpt>
   <trkpt lon="6.695893" lat="45.224967"><ele>1787.75</ele></trkpt>
   <trkpt lon="6.695936" lat="45.224940"><ele>1784.5</ele></trkpt>
   <trkpt lon="6.695942" lat="45.224842"><ele>1778.75</ele></trkpt>
   <trkpt lon="6.695977" lat="45.224753"><ele>1772.25</ele></trkpt>
   <trkpt lon="6.696009" lat="45.224703"><ele>1768.25</ele></trkpt>
   <trkpt lon="6.695978" lat="45.224596"><ele>1763.25</ele></trkpt>
   <trkpt lon="6.695813" lat="45.224363"><ele>1756.5</ele></trkpt>
   <trkpt lon="6.695737" lat="45.224270"><ele>1753.0</ele></trkpt>
   <trkpt lon="6.695759" lat="45.224213"><ele>1749.25</ele></trkpt>
   <trkpt lon="6.695867" lat="45.224218"><ele>1746.25</ele></trkpt>
   <trkpt lon="6.696002" lat="45.224272"><ele>1743.75</ele></trkpt>
   <trkpt lon="6.696149" lat="45.224272"><ele>1737.75</ele></trkpt>
   <trkpt lon="6.696170" lat="45.224230"><ele>1734.5</ele></trkpt>
   <trkpt lon="6.696081" lat="45.224147"><ele>1733.0</ele></trkpt>
   <trkpt lon="6.696014" lat="45.224043"><ele>1728.25</ele></trkpt>
   <trkpt lon="6.695974" lat="45.224015"><ele>1727.75</ele></trkpt>
   <trkpt lon="6.695956" lat="45.223986"><ele>1726.25</ele></trkpt>
   <trkpt lon="6.695958" lat="45.223957"><ele>1724.0</ele></trkpt>
   <trkpt lon="6.696006" lat="45.223938"><ele>1720.75</ele></trkpt>
   <trkpt lon="6.696113" lat="45.223943"><ele>1717.0</ele></trkpt>
   <trkpt lon="6.696137" lat="45.223866"><ele>1710.5</ele></trkpt>
   <trkpt lon="6.696235" lat="45.223862"><ele>1706.5</ele></trkpt>
   <trkpt lon="6.696210" lat="45.223792"><ele>1702.5</ele></trkpt>
   <trkpt lon="6.696302" lat="45.223754"><ele>1696.5</ele></trkpt>
   <trkpt lon="6.696401" lat="45.223777"><ele>1694.5</ele></trkpt>
   <trkpt lon="6.696517" lat="45.223792"><ele>1691.25</ele></trkpt>
   <trkpt lon="6.696491" lat="45.223704"><ele>1686.25</ele></trkpt>
   <trkpt lon="6.696516" lat="45.223673"><ele>1683.25</ele></trkpt>
   <trkpt lon="6.696578" lat="45.223659"><ele>1680.0</ele></trkpt>
   <trkpt lon="6.696621" lat="45.223684"><ele>1680.25</ele></trkpt>
   <trkpt lon="6.696652" lat="45.223745"><ele>1683.0</ele></trkpt>
   <trkpt lon="6.696726" lat="45.223801"><ele>1683.5</ele></trkpt>
   <trkpt lon="6.696824" lat="45.223823"><ele>1680.5</ele></trkpt>
   <trkpt lon="6.696904" lat="45.223861"><ele>1679.5</ele></trkpt>
   <trkpt lon="6.697002" lat="45.223879"><ele>1676.25</ele></trkpt>
   <trkpt lon="6.697131" lat="45.223931"><ele>1674.0</ele></trkpt>
   <trkpt lon="6.697278" lat="45.223970"><ele>1670.0</ele></trkpt>
   <trkpt lon="6.697450" lat="45.223974"><ele>1662.75</ele></trkpt>
   <trkpt lon="6.697536" lat="45.224004"><ele>1661.5</ele></trkpt>
   <trkpt lon="6.697589" lat="45.223958"><ele>1657.0</ele></trkpt>
   <trkpt lon="6.697666" lat="45.224006"><ele>1658.5</ele></trkpt>
   <trkpt lon="6.697841" lat="45.223985"><ele>1652.5</ele></trkpt>
   <trkpt lon="6.697868" lat="45.223955"><ele>1650.0</ele></trkpt>
   <trkpt lon="6.697927" lat="45.223930"><ele>1647.0</ele></trkpt>
   <trkpt lon="6.698068" lat="45.223874"><ele>1640.0</ele></trkpt>
   <trkpt lon="6.698123" lat="45.223817"><ele>1635.25</ele></trkpt>
   <trkpt lon="6.698186" lat="45.223798"><ele>1632.5</ele></trkpt>
   <trkpt lon="6.698203" lat="45.223760"><ele>1629.75</ele></trkpt>
   <trkpt lon="6.698185" lat="45.223724"><ele>1628.0</ele></trkpt>
   <trkpt lon="6.698267" lat="45.223647"><ele>1621.75</ele></trkpt>
   <trkpt lon="6.698412" lat="45.223542"><ele>1613.25</ele></trkpt>
   <trkpt lon="6.698562" lat="45.223279"><ele>1596.0</ele></trkpt>
   <trkpt lon="6.698741" lat="45.223155"><ele>1587.25</ele></trkpt>
   <trkpt lon="6.698553" lat="45.223115"><ele>1587.5</ele></trkpt>
   <trkpt lon="6.698556" lat="45.223021"><ele>1582.75</ele></trkpt>
   <trkpt lon="6.698748" lat="45.222972"><ele>1577.5</ele></trkpt>
   <trkpt lon="6.698893" lat="45.222926"><ele>1573.0</ele></trkpt>
   <trkpt lon="6.698771" lat="45.222877"><ele>1572.25</ele></trkpt>
   <trkpt lon="6.698926" lat="45.222841"><ele>1568.25</ele></trkpt>
   <trkpt lon="6.699269" lat="45.222783"><ele>1560.25</ele></trkpt>
   <trkpt lon="6.699258" lat="45.222755"><ele>1558.75</ele></trkpt>
   <trkpt lon="6.699317" lat="45.222741"><ele>1557.0</ele></trkpt>
   <trkpt lon="6.699285" lat="45.222722"><ele>1556.5</ele></trkpt>
   <trkpt lon="6.699297" lat="45.222699"><ele>1555.0</ele></trkpt>
   <trkpt lon="6.699363" lat="45.222709"><ele>1554.25</ele></trkpt>
   <trkpt lon="6.699449" lat="45.222731"><ele>1554.0</ele></trkpt>
   <trkpt lon="6.699472" lat="45.222801"><ele>1558.0</ele></trkpt>
   <trkpt lon="6.699527" lat="45.222859"><ele>1560.5</ele></trkpt>
   <trkpt lon="6.699618" lat="45.222882"><ele>1560.75</ele></trkpt>
   <trkpt lon="6.699618" lat="45.222779"><ele>1554.25</ele></trkpt>
   <trkpt lon="6.699545" lat="45.222587"><ele>1543.5</ele></trkpt>
   <trkpt lon="6.699382" lat="45.222464"><ele>1540.75</ele></trkpt>
   <trkpt lon="6.699232" lat="45.222365"><ele>1540.5</ele></trkpt>
   <trkpt lon="6.699290" lat="45.222282"><ele>1536.25</ele></trkpt>
   <trkpt lon="6.699367" lat="45.222218"><ele>1532.25</ele></trkpt>
   <trkpt lon="6.699408" lat="45.222132"><ele>1528.5</ele></trkpt>
   <trkpt lon="6.699414" lat="45.222013"><ele>1524.25</ele></trkpt>
   <trkpt lon="6.699305" lat="45.221886"><ele>1521.5</ele></trkpt>
   <trkpt lon="6.699277" lat="45.221773"><ele>1518.0</ele></trkpt>
   <trkpt lon="6.699300" lat="45.221623"><ele>1512.25</ele></trkpt>
   <trkpt lon="6.699253" lat="45.221517"><ele>1509.25</ele></trkpt>
   <trkpt lon="6.699276" lat="45.221453"><ele>1506.5</ele></trkpt>
   <trkpt lon="6.699337" lat="45.221156"><ele>1494.75</ele></trkpt>
   <trkpt lon="6.699326" lat="45.221142"><ele>1494.5</ele></trkpt>
   <trkpt lon="6.699240" lat="45.221110"><ele>1495.0</ele></trkpt>
   <trkpt lon="6.699168" lat="45.220977"><ele>1491.75</ele></trkpt>
   <trkpt lon="6.699130" lat="45.220924"><ele>1490.25</ele></trkpt>
   <trkpt lon="6.699088" lat="45.220894"><ele>1489.25</ele></trkpt>
   <trkpt lon="6.699073" lat="45.220858"><ele>1488.0</ele></trkpt>
   <trkpt lon="6.699149" lat="45.220754"><ele>1482.5</ele></trkpt>
   <trkpt lon="6.699198" lat="45.220762"><ele>1482.0</ele></trkpt>
   <trkpt lon="6.699256" lat="45.220787"><ele>1482.25</ele></trkpt>
   <trkpt lon="6.699316" lat="45.220815"><ele>1482.5</ele></trkpt>
   <trkpt lon="6.699466" lat="45.220901"><ele>1483.0</ele></trkpt>
   <trkpt lon="6.699677" lat="45.221000"><ele>1482.25</ele></trkpt>
   <trkpt lon="6.699717" lat="45.221039"><ele>1483.0</ele></trkpt>
   <trkpt lon="6.699765" lat="45.221061"><ele>1482.75</ele></trkpt>
   <trkpt lon="6.699863" lat="45.221158"><ele>1484.75</ele></trkpt>
   <trkpt lon="6.699936" lat="45.221205"><ele>1485.25</ele></trkpt>
   <trkpt lon="6.700084" lat="45.221339"><ele>1487.25</ele></trkpt>
   <trkpt lon="6.700168" lat="45.221396"><ele>1487.5</ele></trkpt>
   <trkpt lon="6.700294" lat="45.221456"><ele>1487.0</ele></trkpt>
   <trkpt lon="6.700333" lat="45.221585"><ele>1491.5</ele></trkpt>
   <trkpt lon="6.700336" lat="45.221593"><ele>1492.0</ele></trkpt>
   <trkpt lon="6.700404" lat="45.221663"><ele>1493.5</ele></trkpt>
   <trkpt lon="6.700425" lat="45.221697"><ele>1494.5</ele></trkpt>
   <trkpt lon="6.700426" lat="45.221743"><ele>1496.5</ele></trkpt>
   <trkpt lon="6.700413" lat="45.221789"><ele>1498.75</ele></trkpt>
   <trkpt lon="6.700420" lat="45.221814"><ele>1499.5</ele></trkpt>
   <trkpt lon="6.700439" lat="45.221841"><ele>1500.5</ele></trkpt>
   <trkpt lon="6.700441" lat="45.221865"><ele>1501.5</ele></trkpt>
   <trkpt lon="6.700411" lat="45.221888"><ele>1503.0</ele></trkpt>
   <trkpt lon="6.700414" lat="45.221903"><ele>1503.5</ele></trkpt>
   <trkpt lon="6.700459" lat="45.221921"><ele>1503.5</ele></trkpt>
   <trkpt lon="6.700554" lat="45.221938"><ele>1503.0</ele></trkpt>
   <trkpt lon="6.700676" lat="45.221898"><ele>1499.0</ele></trkpt>
   <trkpt lon="6.700956" lat="45.221719"><ele>1487.0</ele></trkpt>
   <trkpt lon="6.700975" lat="45.221703"><ele>1486.25</ele></trkpt>
   <trkpt lon="6.701297" lat="45.221778"><ele>1491.0</ele></trkpt>
   <trkpt lon="6.701426" lat="45.221775"><ele>1491.25</ele></trkpt>
   <trkpt lon="6.701517" lat="45.221798"><ele>1492.75</ele></trkpt>
   <trkpt lon="6.701662" lat="45.221857"><ele>1496.25</ele></trkpt>
   <trkpt lon="6.701738" lat="45.221861"><ele>1497.25</ele></trkpt>
   <trkpt lon="6.701950" lat="45.221986"><ele>1505.75</ele></trkpt>
   <trkpt lon="6.702403" lat="45.222049"><ele>1512.75</ele></trkpt>
   <trkpt lon="6.702732" lat="45.222158"><ele>1519.0</ele></trkpt>
   <trkpt lon="6.703050" lat="45.222362"><ele>1529.75</ele></trkpt>
   <trkpt lon="6.703337" lat="45.222437"><ele>1533.25</ele></trkpt>
   <trkpt lon="6.703709" lat="45.222473"><ele>1534.0</ele></trkpt>
   <trkpt lon="6.703817" lat="45.222511"><ele>1535.5</ele></trkpt>
   <trkpt lon="6.703940" lat="45.222658"><ele>1542.0</ele></trkpt>
   <trkpt lon="6.704082" lat="45.222757"><ele>1546.0</ele></trkpt>
   <trkpt lon="6.704321" lat="45.222813"><ele>1547.0</ele></trkpt>
   <trkpt lon="6.704412" lat="45.222991"><ele>1554.75</ele></trkpt>
   <trkpt lon="6.704460" lat="45.223240"><ele>1566.25</ele></trkpt>
   <trkpt lon="6.704514" lat="45.223444"><ele>1576.25</ele></trkpt>
   <trkpt lon="6.704554" lat="45.223520"><ele>1580.25</ele></trkpt>
   <trkpt lon="6.704517" lat="45.223550"><ele>1582.0</ele></trkpt>
   <trkpt lon="6.704426" lat="45.223580"><ele>1583.75</ele></trkpt>
   <trkpt lon="6.704270" lat="45.223567"><ele>1583.5</ele></trkpt>
   <trkpt lon="6.704160" lat="45.223601"><ele>1585.75</ele></trkpt>
   <trkpt lon="6.704131" lat="45.223688"><ele>1590.5</ele></trkpt>
   <trkpt lon="6.704120" lat="45.223750"><ele>1593.75</ele></trkpt>
   <trkpt lon="6.704085" lat="45.223833"><ele>1598.25</ele></trkpt>
   <trkpt lon="6.704152" lat="45.223956"><ele>1604.0</ele></trkpt>
   <trkpt lon="6.704157" lat="45.224003"><ele>1606.5</ele></trkpt>
   <trkpt lon="6.704112" lat="45.224090"><ele>1611.25</ele></trkpt>
   <trkpt lon="6.704112" lat="45.224215"><ele>1618.0</ele></trkpt>
   <trkpt lon="6.704088" lat="45.224294"><ele>1622.75</ele></trkpt>
   <trkpt lon="6.704096" lat="45.224459"><ele>1632.0</ele></trkpt>
   <trkpt lon="6.704074" lat="45.224644"><ele>1642.5</ele></trkpt>
   <trkpt lon="6.704080" lat="45.224776"><ele>1649.75</ele></trkpt>
   <trkpt lon="6.704101" lat="45.224838"><ele>1653.25</ele></trkpt>
   <trkpt lon="6.704082" lat="45.224889"><ele>1656.25</ele></trkpt>
   <trkpt lon="6.703986" lat="45.224906"><ele>1658.0</ele></trkpt>
   <trkpt lon="6.703873" lat="45.224942"><ele>1660.75</ele></trkpt>
   <trkpt lon="6.703865" lat="45.224982"><ele>1663.0</ele></trkpt>
   <trkpt lon="6.704318" lat="45.225265"><ele>1682.0</ele></trkpt>
   <trkpt lon="6.704549" lat="45.225386"><ele>1690.5</ele></trkpt>
   <trkpt lon="6.704605" lat="45.225409"><ele>1692.25</ele></trkpt>
   <trkpt lon="6.704588" lat="45.225444"><ele>1695.0</ele></trkpt>
   <trkpt lon="6.704581" lat="45.225460"><ele>1696.25</ele></trkpt>
   <trkpt lon="6.704527" lat="45.225492"><ele>1698.75</ele></trkpt>
   <trkpt lon="6.704527" lat="45.225524"><ele>1701.0</ele></trkpt>
   <trkpt lon="6.704868" lat="45.225781"><ele>1719.5</ele></trkpt>
   <trkpt lon="6.705093" lat="45.225934"><ele>1730.25</ele></trkpt>
   <trkpt lon="6.705308" lat="45.226014"><ele>1735.75</ele></trkpt>
   <trkpt lon="6.705458" lat="45.226104"><ele>1742.0</ele></trkpt>
   <trkpt lon="6.705592" lat="45.226114"><ele>1742.25</ele></trkpt>
   <trkpt lon="6.705716" lat="45.226131"><ele>1742.75</ele></trkpt>
   <trkpt lon="6.705812" lat="45.226187"><ele>1746.75</ele></trkpt>
   <trkpt lon="6.705938" lat="45.226229"><ele>1750.75</ele></trkpt>
   <trkpt lon="6.706080" lat="45.226248"><ele>1753.75</ele></trkpt>
   <trkpt lon="6.706199" lat="45.226327"><ele>1760.5</ele></trkpt>
   <trkpt lon="6.706335" lat="45.226391"><ele>1766.5</ele></trkpt>
   <trkpt lon="6.706354" lat="45.226452"><ele>1770.75</ele></trkpt>
   <trkpt lon="6.706333" lat="45.226501"><ele>1774.25</ele></trkpt>
   <trkpt lon="6.706239" lat="45.226537"><ele>1776.0</ele></trkpt>
   <trkpt lon="6.706094" lat="45.226582"><ele>1778.25</ele></trkpt>
   <trkpt lon="6.706003" lat="45.226603"><ele>1779.25</ele></trkpt>
   <trkpt lon="6.705944" lat="45.226650"><ele>1782.25</ele></trkpt>
   <trkpt lon="6.705922" lat="45.226718"><ele>1786.75</ele></trkpt>
   <trkpt lon="6.705930" lat="45.226767"><ele>1789.75</ele></trkpt>
   <trkpt lon="6.706051" lat="45.226797"><ele>1792.25</ele></trkpt>
   <trkpt lon="6.706220" lat="45.226886"><ele>1798.75</ele></trkpt>
   <trkpt lon="6.706318" lat="45.226968"><ele>1804.0</ele></trkpt>
   <trkpt lon="6.706515" lat="45.226984"><ele>1805.75</ele></trkpt>
   <trkpt lon="6.706649" lat="45.226981"><ele>1806.0</ele></trkpt>
   <trkpt lon="6.706872" lat="45.226995"><ele>1808.0</ele></trkpt>
   <trkpt lon="6.707054" lat="45.227020"><ele>1810.5</ele></trkpt>
   <trkpt lon="6.707266" lat="45.227134"><ele>1817.5</ele></trkpt>
   <trkpt lon="6.707397" lat="45.227185"><ele>1820.75</ele></trkpt>
   <trkpt lon="6.707859" lat="45.227427"><ele>1831.5</ele></trkpt>
   <trkpt lon="6.708071" lat="45.227568"><ele>1838.25</ele></trkpt>
   <trkpt lon="6.708132" lat="45.227734"><ele>1847.5</ele></trkpt>
   <trkpt lon="6.708119" lat="45.227836"><ele>1853.0</ele></trkpt>
   <trkpt lon="6.708030" lat="45.227938"><ele>1859.25</ele></trkpt>
   <trkpt lon="6.707848" lat="45.228059"><ele>1866.75</ele></trkpt>
   <trkpt lon="6.707829" lat="45.228090"><ele>1868.5</ele></trkpt>
   <trkpt lon="6.707848" lat="45.228141"><ele>1871.25</ele></trkpt>
   <trkpt lon="6.707953" lat="45.228235"><ele>1876.25</ele></trkpt>
   <trkpt lon="6.708427" lat="45.228441"><ele>1886.25</ele></trkpt>
   <trkpt lon="6.708910" lat="45.228539"><ele>1891.0</ele></trkpt>
   <trkpt lon="6.709001" lat="45.228602"><ele>1894.5</ele></trkpt>
   <trkpt lon="6.709042" lat="45.228702"><ele>1900.0</ele></trkpt>
   <trkpt lon="6.709034" lat="45.228787"><ele>1905.0</ele></trkpt>
   <trkpt lon="6.709154" lat="45.228806"><ele>1905.5</ele></trkpt>
   <trkpt lon="6.709302" lat="45.228815"><ele>1905.0</ele></trkpt>
   <trkpt lon="6.709425" lat="45.228849"><ele>1906.0</ele></trkpt>
   <trkpt lon="6.709634" lat="45.228860"><ele>1905.0</ele></trkpt>
   <trkpt lon="6.709980" lat="45.228851"><ele>1901.75</ele></trkpt>
   <trkpt lon="6.710312" lat="45.228828"><ele>1896.5</ele></trkpt>
   <trkpt lon="6.710329" lat="45.228792"><ele>1894.25</ele></trkpt>
   <trkpt lon="6.710367" lat="45.228797"><ele>1894.25</ele></trkpt>
   <trkpt lon="6.710521" lat="45.228879"><ele>1897.0</ele></trkpt>
   <trkpt lon="6.710595" lat="45.228903"><ele>1897.5</ele></trkpt>
   <trkpt lon="6.710705" lat="45.228957"><ele>1899.25</ele></trkpt>
   <trkpt lon="6.710757" lat="45.228964"><ele>1899.0</ele></trkpt>
   <trkpt lon="6.710851" lat="45.228980"><ele>1899.25</ele></trkpt>
   <trkpt lon="6.710977" lat="45.228991"><ele>1900.0</ele></trkpt>
   <trkpt lon="6.711036" lat="45.228987"><ele>1899.75</ele></trkpt>
   <trkpt lon="6.711077" lat="45.228972"><ele>1899.0</ele></trkpt>
   <trkpt lon="6.711165" lat="45.228962"><ele>1898.5</ele></trkpt>
   <trkpt lon="6.711224" lat="45.228906"><ele>1895.25</ele></trkpt>
   <trkpt lon="6.711296" lat="45.228851"><ele>1891.75</ele></trkpt>
   <trkpt lon="6.711347" lat="45.228823"><ele>1890.25</ele></trkpt>
   <trkpt lon="6.711513" lat="45.228791"><ele>1888.0</ele></trkpt>
   <trkpt lon="6.711588" lat="45.228783"><ele>1887.5</ele></trkpt>
   <trkpt lon="6.711803" lat="45.228784"><ele>1887.75</ele></trkpt>
   <trkpt lon="6.711945" lat="45.228767"><ele>1886.75</ele></trkpt>
   <trkpt lon="6.712009" lat="45.228760"><ele>1886.5</ele></trkpt>
   <trkpt lon="6.712530" lat="45.228699"><ele>1882.5</ele></trkpt>
   <trkpt lon="6.712799" lat="45.228693"><ele>1878.5</ele></trkpt>
   <trkpt lon="6.712950" lat="45.228808"><ele>1884.0</ele></trkpt>
   <trkpt lon="6.713219" lat="45.228963"><ele>1890.0</ele></trkpt>
   <trkpt lon="6.713504" lat="45.228972"><ele>1885.0</ele></trkpt>
   <trkpt lon="6.713614" lat="45.228996"><ele>1884.25</ele></trkpt>
   <trkpt lon="6.713857" lat="45.229052"><ele>1882.25</ele></trkpt>
   <trkpt lon="6.714009" lat="45.229109"><ele>1882.25</ele></trkpt>
   <trkpt lon="6.714215" lat="45.229248"><ele>1886.75</ele></trkpt>
   <trkpt lon="6.714481" lat="45.229333"><ele>1889.25</ele></trkpt>
   <trkpt lon="6.714858" lat="45.229363"><ele>1887.0</ele></trkpt>
   <trkpt lon="6.715270" lat="45.229309"><ele>1883.25</ele></trkpt>
   <trkpt lon="6.715751" lat="45.229182"><ele>1876.5</ele></trkpt>
   <trkpt lon="6.716472" lat="45.229043"><ele>1871.5</ele></trkpt>
   <trkpt lon="6.717133" lat="45.228970"><ele>1878.5</ele></trkpt>
   <trkpt lon="6.717845" lat="45.228795"><ele>1875.0</ele></trkpt>
   <trkpt lon="6.718395" lat="45.228602"><ele>1865.0</ele></trkpt>
   <trkpt lon="6.718532" lat="45.228578"><ele>1861.75</ele></trkpt>
   <trkpt lon="6.718824" lat="45.228632"><ele>1861.0</ele></trkpt>
   <trkpt lon="6.719150" lat="45.228765"><ele>1863.5</ele></trkpt>
   <trkpt lon="6.719390" lat="45.228928"><ele>1862.25</ele></trkpt>
   <trkpt lon="6.719751" lat="45.229339"><ele>1867.0</ele></trkpt>
   <trkpt lon="6.720111" lat="45.229835"><ele>1876.75</ele></trkpt>
   <trkpt lon="6.720248" lat="45.229907"><ele>1875.25</ele></trkpt>
   <trkpt lon="6.720472" lat="45.229956"><ele>1869.5</ele></trkpt>
   <trkpt lon="6.720849" lat="45.229944"><ele>1855.25</ele></trkpt>
   <trkpt lon="6.721107" lat="45.229944"><ele>1850.5</ele></trkpt>
   <trkpt lon="6.722214" lat="45.230240"><ele>1835.75</ele></trkpt>
   <trkpt lon="6.722343" lat="45.230379"><ele>1836.0</ele></trkpt>
   <trkpt lon="6.722437" lat="45.230663"><ele>1841.25</ele></trkpt>
   <trkpt lon="6.722652" lat="45.231032"><ele>1843.75</ele></trkpt>
   <trkpt lon="6.722823" lat="45.231231"><ele>1843.25</ele></trkpt>
   <trkpt lon="6.723089" lat="45.231431"><ele>1839.75</ele></trkpt>
   <trkpt lon="6.723424" lat="45.231950"><ele>1842.0</ele></trkpt>
   <trkpt lon="6.723707" lat="45.232355"><ele>1840.0</ele></trkpt>
   <trkpt lon="6.723999" lat="45.232682"><ele>1834.25</ele></trkpt>
   <trkpt lon="6.724137" lat="45.232948"><ele>1834.5</ele></trkpt>
   <trkpt lon="6.724403" lat="45.233286"><ele>1830.0</ele></trkpt>
   <trkpt lon="6.724609" lat="45.233933"><ele>1828.25</ele></trkpt>
   <trkpt lon="6.724883" lat="45.234471"><ele>1824.25</ele></trkpt>
   <trkpt lon="6.725064" lat="45.234743"><ele>1820.75</ele></trkpt>
   <trkpt lon="6.725115" lat="45.234967"><ele>1822.25</ele></trkpt>
   <trkpt lon="6.725184" lat="45.235094"><ele>1821.75</ele></trkpt>
   <trkpt lon="6.725424" lat="45.235317"><ele>1815.75</ele></trkpt>
   <trkpt lon="6.725733" lat="45.235758"><ele>1811.5</ele></trkpt>
   <trkpt lon="6.725870" lat="45.236049"><ele>1807.5</ele></trkpt>
   <trkpt lon="6.725896" lat="45.236163"><ele>1806.25</ele></trkpt>
   <trkpt lon="6.725759" lat="45.236556"><ele>1812.0</ele></trkpt>
   <trkpt lon="6.725793" lat="45.236683"><ele>1810.5</ele></trkpt>
   <trkpt lon="6.725853" lat="45.236858"><ele>1807.75</ele></trkpt>
   <trkpt lon="6.725862" lat="45.237022"><ele>1807.0</ele></trkpt>
   <trkpt lon="6.725896" lat="45.237149"><ele>1805.75</ele></trkpt>
   <trkpt lon="6.725913" lat="45.237366"><ele>1804.75</ele></trkpt>
   <trkpt lon="6.725870" lat="45.237511"><ele>1806.0</ele></trkpt>
   <trkpt lon="6.725939" lat="45.237668"><ele>1805.75</ele></trkpt>
   <trkpt lon="6.726096" lat="45.237839"><ele>1803.0</ele></trkpt>
   <trkpt lon="6.726205" lat="45.237958"><ele>1801.25</ele></trkpt>
   <trkpt lon="6.726547" lat="45.238272"><ele>1795.5</ele></trkpt>
   <trkpt lon="6.726608" lat="45.238330"><ele>1794.5</ele></trkpt>
   <trkpt lon="6.726746" lat="45.238502"><ele>1793.5</ele></trkpt>
   <trkpt lon="6.726860" lat="45.238577"><ele>1791.5</ele></trkpt>
   <trkpt lon="6.726990" lat="45.238624"><ele>1789.0</ele></trkpt>
   <trkpt lon="6.727125" lat="45.238664"><ele>1786.25</ele></trkpt>
   <trkpt lon="6.727278" lat="45.238727"><ele>1784.0</ele></trkpt>
   <trkpt lon="6.727413" lat="45.238842"><ele>1783.5</ele></trkpt>
   <trkpt lon="6.727499" lat="45.238955"><ele>1784.75</ele></trkpt>
   <trkpt lon="6.727696" lat="45.239085"><ele>1783.75</ele></trkpt>
   <trkpt lon="6.727887" lat="45.239252"><ele>1782.25</ele></trkpt>
   <trkpt lon="6.728041" lat="45.239498"><ele>1780.75</ele></trkpt>
   <trkpt lon="6.728124" lat="45.239667"><ele>1780.75</ele></trkpt>
   <trkpt lon="6.728153" lat="45.239905"><ele>1782.5</ele></trkpt>
   <trkpt lon="6.728184" lat="45.240011"><ele>1783.25</ele></trkpt>
   <trkpt lon="6.728242" lat="45.240058"><ele>1783.75</ele></trkpt>
   <trkpt lon="6.728406" lat="45.240108"><ele>1784.0</ele></trkpt>
   <trkpt lon="6.728687" lat="45.240098"><ele>1783.5</ele></trkpt>
   <trkpt lon="6.728999" lat="45.240041"><ele>1781.5</ele></trkpt>
   <trkpt lon="6.729364" lat="45.239965"><ele>1782.5</ele></trkpt>
   <trkpt lon="6.729638" lat="45.239747"><ele>1781.0</ele></trkpt>
   <trkpt lon="6.729947" lat="45.239475"><ele>1776.75</ele></trkpt>
   <trkpt lon="6.730128" lat="45.239240"><ele>1771.5</ele></trkpt>
   <trkpt lon="6.730505" lat="45.238641"><ele>1761.0</ele></trkpt>
   <trkpt lon="6.730756" lat="45.238498"><ele>1758.75</ele></trkpt>
   <trkpt lon="6.731222" lat="45.238426"><ele>1758.75</ele></trkpt>
   <trkpt lon="6.731390" lat="45.238365"><ele>1757.5</ele></trkpt>
   <trkpt lon="6.731776" lat="45.238104"><ele>1748.75</ele></trkpt>
   <trkpt lon="6.732311" lat="45.237976"><ele>1746.5</ele></trkpt>
   <trkpt lon="6.732655" lat="45.237859"><ele>1743.25</ele></trkpt>
   <trkpt lon="6.732969" lat="45.237717"><ele>1737.75</ele></trkpt>
   <trkpt lon="6.733237" lat="45.237616"><ele>1734.0</ele></trkpt>
   <trkpt lon="6.733534" lat="45.237556"><ele>1730.75</ele></trkpt>
   <trkpt lon="6.733725" lat="45.237562"><ele>1730.0</ele></trkpt>
   <trkpt lon="6.733772" lat="45.237564"><ele>1730.0</ele></trkpt>
   <trkpt lon="6.733990" lat="45.237608"><ele>1730.5</ele></trkpt>
   <trkpt lon="6.734222" lat="45.237729"><ele>1733.5</ele></trkpt>
   <trkpt lon="6.734525" lat="45.237642"><ele>1727.5</ele></trkpt>
   <trkpt lon="6.734646" lat="45.237560"><ele>1723.5</ele></trkpt>
   <trkpt lon="6.734801" lat="45.237397"><ele>1716.75</ele></trkpt>
   <trkpt lon="6.734958" lat="45.237391"><ele>1715.25</ele></trkpt>
   <trkpt lon="6.735098" lat="45.237459"><ele>1717.5</ele></trkpt>
   <trkpt lon="6.735203" lat="45.237421"><ele>1717.25</ele></trkpt>
   <trkpt lon="6.735284" lat="45.237364"><ele>1716.25</ele></trkpt>
   <trkpt lon="6.735337" lat="45.237299"><ele>1714.75</ele></trkpt>
   <trkpt lon="6.735471" lat="45.237069"><ele>1708.75</ele></trkpt>
   <trkpt lon="6.735491" lat="45.236984"><ele>1706.25</ele></trkpt>
   <trkpt lon="6.735503" lat="45.236975"><ele>1706.0</ele></trkpt>
   <trkpt lon="6.735638" lat="45.236769"><ele>1700.25</ele></trkpt>
   <trkpt lon="6.735710" lat="45.236388"><ele>1688.25</ele></trkpt>
   <trkpt lon="6.735770" lat="45.236066"><ele>1677.75</ele></trkpt>
   <trkpt lon="6.735845" lat="45.235784"><ele>1668.25</ele></trkpt>
   <trkpt lon="6.736098" lat="45.235523"><ele>1658.25</ele></trkpt>
   <trkpt lon="6.736370" lat="45.235320"><ele>1649.5</ele></trkpt>
   <trkpt lon="6.736767" lat="45.235129"><ele>1638.75</ele></trkpt>
   <trkpt lon="6.737450" lat="45.234988"><ele>1620.5</ele></trkpt>
   <trkpt lon="6.737947" lat="45.234760"><ele>1605.0</ele></trkpt>
   <trkpt lon="6.738177" lat="45.234423"><ele>1590.5</ele></trkpt>
   <trkpt lon="6.738326" lat="45.234171"><ele>1580.0</ele></trkpt>
   <trkpt lon="6.738484" lat="45.233948"><ele>1573.75</ele></trkpt>
   <trkpt lon="6.738675" lat="45.233764"><ele>1568.25</ele></trkpt>
   <trkpt lon="6.739172" lat="45.233319"><ele>1555.5</ele></trkpt>
   <trkpt lon="6.739536" lat="45.232978"><ele>1548.0</ele></trkpt>
   <trkpt lon="6.739880" lat="45.232526"><ele>1539.75</ele></trkpt>
   <trkpt lon="6.739961" lat="45.232445"><ele>1538.25</ele></trkpt>
   <trkpt lon="6.740004" lat="45.232419"><ele>1537.5</ele></trkpt>
   <trkpt lon="6.740084" lat="45.232374"><ele>1536.75</ele></trkpt>
   <trkpt lon="6.740198" lat="45.232296"><ele>1535.0</ele></trkpt>
   <trkpt lon="6.740269" lat="45.232190"><ele>1533.0</ele></trkpt>
   <trkpt lon="6.740276" lat="45.232082"><ele>1531.75</ele></trkpt>
   <trkpt lon="6.740253" lat="45.231978"><ele>1530.5</ele></trkpt>
   <trkpt lon="6.740250" lat="45.231926"><ele>1530.0</ele></trkpt>
   <trkpt lon="6.740287" lat="45.231875"><ele>1529.0</ele></trkpt>
   <trkpt lon="6.740386" lat="45.231886"><ele>1528.5</ele></trkpt>
   <trkpt lon="6.740521" lat="45.231915"><ele>1527.75</ele></trkpt>
   <trkpt lon="6.740683" lat="45.231981"><ele>1527.25</ele></trkpt>
   <trkpt lon="6.740761" lat="45.232069"><ele>1527.75</ele></trkpt>
   <trkpt lon="6.740887" lat="45.232089"><ele>1526.75</ele></trkpt>
   <trkpt lon="6.740920" lat="45.232129"><ele>1526.75</ele></trkpt>
   <trkpt lon="6.740955" lat="45.232144"><ele>1526.5</ele></trkpt>
   <trkpt lon="6.740989" lat="45.232148"><ele>1526.25</ele></trkpt>
   <trkpt lon="6.741026" lat="45.232144"><ele>1525.75</ele></trkpt>
   <trkpt lon="6.741066" lat="45.232128"><ele>1525.0</ele></trkpt>
   <trkpt lon="6.741088" lat="45.232106"><ele>1524.25</ele></trkpt>
   <trkpt lon="6.741099" lat="45.232080"><ele>1523.75</ele></trkpt>
   <trkpt lon="6.741186" lat="45.232087"><ele>1522.5</ele></trkpt>
   <trkpt lon="6.741301" lat="45.232234"><ele>1523.75</ele></trkpt>
   <trkpt lon="6.741397" lat="45.232312"><ele>1524.25</ele></trkpt>
   <trkpt lon="6.741464" lat="45.232357"><ele>1524.5</ele></trkpt>
   <trkpt lon="6.741752" lat="45.232444"><ele>1523.5</ele></trkpt>
   <trkpt lon="6.741899" lat="45.232479"><ele>1522.25</ele></trkpt>
   <trkpt lon="6.741902" lat="45.232479"><ele>1522.0</ele></trkpt>
   <trkpt lon="6.742017" lat="45.232485"><ele>1521.0</ele></trkpt>
   <trkpt lon="6.742238" lat="45.232608"><ele>1521.0</ele></trkpt>
   <trkpt lon="6.742553" lat="45.232878"><ele>1524.5</ele></trkpt>
   <trkpt lon="6.742672" lat="45.233007"><ele>1527.0</ele></trkpt>
   <trkpt lon="6.742762" lat="45.233087"><ele>1528.25</ele></trkpt>
   <trkpt lon="6.742837" lat="45.233120"><ele>1528.5</ele></trkpt>
   <trkpt lon="6.743019" lat="45.233100"><ele>1526.5</ele></trkpt>
   <trkpt lon="6.743088" lat="45.233058"><ele>1525.0</ele></trkpt>
   <trkpt lon="6.743139" lat="45.233027"><ele>1523.75</ele></trkpt>
   <trkpt lon="6.743191" lat="45.232961"><ele>1521.5</ele></trkpt>
   <trkpt lon="6.743341" lat="45.232734"><ele>1514.75</ele></trkpt>
   <trkpt lon="6.743398" lat="45.232770"><ele>1515.25</ele></trkpt>
  </trkseg>
 </trk>
</gpx>
